%YAML 1.1
%TAG !u! tag:unity3d.com,2011:
--- !u!78 &1
TagManager:
  serializedVersion: 2
  tags:
  - Chao
  - Plataforma
  - Enemy
  - Checkpoint
  - LimitCam
  - Granada
  - BalaP
  - Jammer
  - Fragmento
  - Alvo
  - Laser
  - balaCerb
  - onlyTrigger
  - escaneavel
  - Scanner
  layers:
  - Default
  - TransparentFX
  - Ignore Raycast
  - 
  - Water
  - UI
  - 
  - 
  - Chao
  - Plataforma
  - LightObstacles
  - AmbientLight
  - LightSources
  - Sky
  - Foreground
  - Player
  - isMap
  - Boss
  - PostProcess
  - Background
  - limitCerb
  - Props
  - 
  - 
  - 
  - 
  - 
  - 
  - 
  - 
  - 
  - 
  m_SortingLayers:
  - name: Parallax
    uniqueID: 2348204185
    locked: 0
  - name: Default
    uniqueID: 0
    locked: 0
  - name: "Atr\xE1s"
    uniqueID: 2861145499
    locked: 0
  - name: Meio
    uniqueID: 284497455
    locked: 0
  - name: Inimigos
    uniqueID: 4178062123
    locked: 0
  - name: Pandora
    uniqueID: 2737846671
    locked: 0
  - name: Frente
    uniqueID: 798819495
    locked: 0
  - name: UI
    uniqueID: 1958505903
    locked: 0
