%YAML 1.1
%TAG !u! tag:unity3d.com,2011:
--- !u!114 &11400000
MonoBehaviour:
  m_ObjectHideFlags: 0
  m_PrefabParentObject: {fileID: 0}
  m_PrefabInternal: {fileID: 0}
  m_GameObject: {fileID: 0}
  m_Enabled: 1
  m_EditorHideFlags: 0
  m_Script: {fileID: 11500000, guid: ae0543fe805424df99fe08ce744cbe49, type: 3}
  m_Name: bind
  m_EditorClassIdentifier: 
  m_PoseEntries:
  - path: Bones/B_root
    localPosition: {x: -0.03016758, y: -2.6461093, z: 0}
    localRotation: {x: 0, y: 0, z: 0.7079472, w: 0.7062654}
    localScale: {x: 1, y: 1, z: 1}
  - path: Bones/B_root/B_Hip
    localPosition: {x: 2.7764294, y: 0, z: 0}
    localRotation: {x: 0, y: 0, z: -0.04528432, w: 0.9989742}
    localScale: {x: 1, y: 1, z: 1}
  - path: Bones/B_root/B_Hip/B_Chest
    localPosition: {x: 0.54041296, y: 0.000000088548404, z: 0}
    localRotation: {x: 0, y: 0, z: 0.17951842, w: 0.98375463}
    localScale: {x: 1, y: 1, z: 1}
  - path: Bones/B_root/B_Hip/B_Chest/B_Collar
    localPosition: {x: 0.7544169, y: -0.00000025890768, z: 0}
    localRotation: {x: 0, y: 0, z: -0.053311344, w: 0.99857795}
    localScale: {x: 1, y: 1, z: 1}
  - path: Bones/B_root/B_Hip/B_Chest/B_Collar/B_Head
    localPosition: {x: 0.2826893, y: 0.00000020381412, z: 0}
    localRotation: {x: 0, y: 0, z: -0.1482337, w: 0.9889524}
    localScale: {x: 1, y: 1, z: 1}
  - path: Bones/B_root/B_Hip/B_Chest/B_Collar/B_Head/B_Hair
    localPosition: {x: 0.31016874, y: 0.00000008638017, z: 0}
    localRotation: {x: -0, y: -0, z: 0.527112, w: 0.8497959}
    localScale: {x: 1, y: 1, z: 1}
  - path: Bones/B_root/B_Hip/B_Chest/B_Collar/B_Head/B_Hair/B_Hair2
    localPosition: {x: 0.3600009, y: -0.0000011175871, z: 0}
    localRotation: {x: 0, y: 0, z: 0.248659, w: 0.9685911}
    localScale: {x: 1, y: 1, z: 1}
  - path: Bones/B_root/B_Hip/B_Chest/B_Collar/B_Head/B_Hair/B_Hair2/B_Hair3
    localPosition: {x: 0.39000016, y: -0.0000018905848, z: 0}
    localRotation: {x: 0, y: 0, z: 0.4113118, w: 0.91149473}
    localScale: {x: 1, y: 1, z: 1}
  - path: Bones/B_root/B_Hip/B_Chest/B_Collar/B_Head/B_Hair/B_Hair2/B_Hair3/B_Hair4
    localPosition: {x: 0.4299999, y: -0.0000009313226, z: 0}
    localRotation: {x: 0, y: 0, z: 0.20144558, w: 0.9794997}
    localScale: {x: 1, y: 1, z: 1}
  - path: Bones/B_root/B_Hip/B_Chest/B_Collar/B_Head/B_Hair/B_Hair2/B_Hair3/B_Hair4/B_Hair5
    localPosition: {x: 0.74999917, y: -0.0000006556511, z: 0}
    localRotation: {x: 0, y: 0, z: 0.04421558, w: 0.999022}
    localScale: {x: 1, y: 1, z: 1}
  - path: Bones/B_root/B_Hip/B_Chest/B_Collar/B_Head/B_Hair/B_Hair2/B_Hair3/B_Hair4/B_Hair5/B_Hair6
    localPosition: {x: 0.71999913, y: -0.0000011423253, z: 0}
    localRotation: {x: 0, y: 0, z: -0.1718362, w: 0.9851256}
    localScale: {x: 1, y: 1, z: 1}
  - path: Bones/B_root/B_Hip/B_Chest/B_Collar/B_Head/B_Hair/B_Hair2/B_Hair3/B_Hair4/B_Hair5/B_Hair6/B_Hair7
    localPosition: {x: 0.66000074, y: -0.0000017965212, z: 0}
    localRotation: {x: 0, y: 0, z: -0.1555586, w: 0.9878267}
    localScale: {x: 1, y: 1, z: 1}
  - path: Bones/B_root/B_Hip/B_Chest/B_Collar/B_Head/B_Bangfront
    localPosition: {x: 0.43422815, y: -0.27008757, z: 0}
    localRotation: {x: 0, y: 0, z: 0.9940989, w: 0.10847773}
    localScale: {x: 1, y: 1, z: 1}
  - path: Bones/B_root/B_Hip/B_Chest/B_Collar/B_Head/B_Bangback
    localPosition: {x: 0.47099966, y: -0.13232942, z: 0}
    localRotation: {x: 0, y: 0, z: 0.8912262, w: 0.45355916}
    localScale: {x: 1.0000014, y: 1.0000014, z: 1}
  - path: Bones/B_root/B_Hip/B_Chest/B_Collar/B_R_Shoulder
    localPosition: {x: -0.0034703165, y: 0.35712254, z: 0}
    localRotation: {x: 0, y: 0, z: 0.98620415, w: 0.1655336}
    localScale: {x: 1, y: 1, z: 1}
  - path: Bones/B_root/B_Hip/B_Chest/B_Collar/B_R_Shoulder/B_R_Forearm
    localPosition: {x: 0.60999924, y: -0.00000062584877, z: 0}
    localRotation: {x: 0, y: 0, z: 0.0013147376, w: 0.99999917}
    localScale: {x: 1, y: 1, z: 1}
  - path: Bones/B_root/B_Hip/B_Chest/B_Collar/B_R_Shoulder/B_R_Forearm/B_R_hand
    localPosition: {x: 0.71999925, y: -0.0000005066395, z: 0}
    localRotation: {x: -0, y: -0, z: 0.00037766987, w: 1}
    localScale: {x: 1, y: 1, z: 1}
  - path: Bones/B_root/B_Hip/B_Chest/B_Collar/B_L_Shoulder
    localPosition: {x: -0.090666376, y: -0.23117949, z: 0}
    localRotation: {x: 0, y: 0, z: 0.9997773, w: 0.021101773}
    localScale: {x: 1, y: 1, z: 1}
  - path: Bones/B_root/B_Hip/B_Chest/B_Collar/B_L_Shoulder/B_L_Forearm
    localPosition: {x: 0.6199994, y: 0.00000031478703, z: 0}
    localRotation: {x: 0, y: 0, z: 0.025760017, w: 0.9996682}
    localScale: {x: 1, y: 1, z: 1}
  - path: Bones/B_root/B_Hip/B_Chest/B_Collar/B_L_Shoulder/B_L_Forearm/B_L_Forearm2
    localPosition: {x: 0.35999945, y: 0.000000098556484, z: 0}
    localRotation: {x: 0, y: 0, z: 0.035559148, w: 0.9993676}
    localScale: {x: 1, y: 1, z: 1}
  - path: Bones/B_root/B_Hip/B_Chest/B_Collar/B_L_Shoulder/B_L_Forearm/B_L_Forearm2/B_L_Hand
    localPosition: {x: 0.32999882, y: 0.000000049141818, z: 0}
    localRotation: {x: -0, y: -0, z: 0.05289909, w: 0.99859995}
    localScale: {x: 1, y: 1, z: 1}
  - path: Bones/B_root/B_Hip/B_Chest/B_bewbs
    localPosition: {x: 0.6470629, y: -0.08084414, z: 0}
    localRotation: {x: -0, y: -0, z: -0.99665135, w: 0.0817688}
    localScale: {x: 1, y: 1, z: 1}
  - path: Bones/B_root/B_Hip/B_R_Thig
    localPosition: {x: 0.0025581382, y: 0.25677422, z: 0}
    localRotation: {x: 0, y: 0, z: 0.9996592, w: 0.026107641}
    localScale: {x: 1.3, y: 1, z: 1}
  - path: Bones/B_root/B_Hip/B_R_Thig/B_R_tibia
    localPosition: {x: 0.6799997, y: 0.00000014901161, z: 0}
    localRotation: {x: 0, y: 0, z: 0, w: 1}
    localScale: {x: 0.9, y: 1, z: 1}
  - path: Bones/B_root/B_Hip/B_R_Thig/B_R_tibia/B_R_Foot
    localPosition: {x: 1.3500013, y: -0.00000007497147, z: 0}
    localRotation: {x: -0, y: -0, z: 0.029935287, w: -0.9995519}
    localScale: {x: 1, y: 1, z: 1}
  - path: Bones/B_root/B_Hip/B_L_Thig
    localPosition: {x: 0.060789704, y: -0.17698738, z: 0}
    localRotation: {x: 0, y: 0, z: -0.99236804, w: 0.12331129}
    localScale: {x: 1.3, y: 1, z: 1}
  - path: Bones/B_root/B_Hip/B_L_Thig/B_L_tibia
    localPosition: {x: 0.67999923, y: 0.00000017881393, z: 0}
    localRotation: {x: 0, y: 0, z: 0, w: 1}
    localScale: {x: 0.9, y: 1, z: 1}
  - path: Bones/B_root/B_Hip/B_L_Thig/B_L_tibia/B_L_Foot
    localPosition: {x: 1.3599998, y: 0.00000027753413, z: 0}
    localRotation: {x: -0, y: -0, z: -0.0000025331972, w: 1}
    localScale: {x: 1, y: 1, z: 1}
