%YAML 1.1
%TAG !u! tag:unity3d.com,2011:
--- !u!21 &2100000
Material:
  serializedVersion: 6
  m_ObjectHideFlags: 0
  m_PrefabParentObject: {fileID: 0}
  m_PrefabInternal: {fileID: 0}
  m_Name: PropsTierMaterial
  m_Shader: {fileID: 4800000, guid: 4d7a259f3cb56d547b410830de9cab7f, type: 3}
  m_ShaderKeywords: ETC1_EXTERNAL_ALPHA _USEVERTEXCOLOR_ON
  m_LightmapFlags: 0
  m_EnableInstancingVariants: 0
  m_DoubleSidedGI: 0
  m_CustomRenderQueue: -1
  stringTagMap: {}
  disabledShaderPasses: []
  m_SavedProperties:
    serializedVersion: 3
    m_TexEnvs:
    - _BumpMap:
        m_Texture: {fileID: 0}
        m_Scale: {x: 1, y: 1}
        m_Offset: {x: 0, y: 0}
    - _DetailAlbedoMap:
        m_Texture: {fileID: 0}
        m_Scale: {x: 1, y: 1}
        m_Offset: {x: 0, y: 0}
    - _DetailMask:
        m_Texture: {fileID: 0}
        m_Scale: {x: 1, y: 1}
        m_Offset: {x: 0, y: 0}
    - _DetailNormalMap:
        m_Texture: {fileID: 0}
        m_Scale: {x: 1, y: 1}
        m_Offset: {x: 0, y: 0}
    - _EmissionMap:
        m_Texture: {fileID: 0}
        m_Scale: {x: 1, y: 1}
        m_Offset: {x: 0, y: 0}
    - _EmissiveMap:
        m_Texture: {fileID: 0}
        m_Scale: {x: 1, y: 1}
        m_Offset: {x: 0, y: 0}
    - _Emissivemap:
        m_Texture: {fileID: 2800000, guid: ad4c7b5005977614b940f512b700c1bb, type: 3}
        m_Scale: {x: 1, y: 1}
        m_Offset: {x: 0, y: 0}
    - _MainTex:
        m_Texture: {fileID: 2800000, guid: a74446a389626bd4387215e255a0640b, type: 3}
        m_Scale: {x: 1, y: 1}
        m_Offset: {x: 0, y: 0}
    - _MetallicGlossMap:
        m_Texture: {fileID: 0}
        m_Scale: {x: 1, y: 1}
        m_Offset: {x: 0, y: 0}
    - _NormalMap:
        m_Texture: {fileID: 0}
        m_Scale: {x: 1, y: 1}
        m_Offset: {x: 0, y: 0}
    - _OcclusionMap:
        m_Texture: {fileID: 0}
        m_Scale: {x: 1, y: 1}
        m_Offset: {x: 0, y: 0}
    - _ParallaxMap:
        m_Texture: {fileID: 0}
        m_Scale: {x: 1, y: 1}
        m_Offset: {x: 0, y: 0}
    - _normal:
        m_Texture: {fileID: 2800000, guid: 7019095b8994d1e4696078a4dd549fd7, type: 3}
        m_Scale: {x: 1, y: 1}
        m_Offset: {x: 0, y: 0}
    - _texcoord:
        m_Texture: {fileID: 0}
        m_Scale: {x: 1, y: 1}
        m_Offset: {x: 0, y: 0}
    m_Floats:
    - _Alpha: 0
    - _BumpScale: 1
    - _Cutoff: 0.5
    - _DetailNormalMapScale: 1
    - _DstBlend: 0
    - _GlossMapScale: 1
    - _Glossiness: 0.5
    - _GlossyReflections: 1
    - _Metallic: 0
    - _Mode: 0
    - _NoiseContrast: 0.5
    - _Noiseanimated: 0
    - _OcclusionStrength: 1
    - _Parallax: 0.02
    - _Smoothness: 0
    - _SmoothnessTextureChannel: 0
    - _SpecularHighlights: 1
    - _SrcBlend: 1
    - _UVSec: 0
    - _UseVertexColor: 1
    - _WaveScale: 0.01
    - _Wavespeed: -0.1
    - _ZWrite: 1
    - __dirty: 0
    - _alpha: 1
    - _emissivePOWEEERR: 1.46
    - _emissivepower: 1
    - _noisescale: 0
    - _normalpower: 1
    - _normpower: 0
    - _useVertexEmission: 0
    m_Colors:
    - _Color: {r: 1, g: 1, b: 1, a: 1}
    - _Color0: {r: 1, g: 1, b: 1, a: 0}
    - _EmissionColor: {r: 0, g: 0, b: 0, a: 1}
    - _EmissiveColor: {r: 0, g: 1, b: 0.2156863, a: 0}
    - _OverlayColor: {r: 1, g: 1, b: 1, a: 0}
    - _OverlayEmissive: {r: 0, g: 0, b: 0, a: 0}
    - _Overlaycolor: {r: 1, g: 1, b: 1, a: 0}
    - _emissivecolor: {r: 0, g: 1, b: 0.2156863, a: 0}
    - _emissiveoverlay: {r: 0, g: 0, b: 0, a: 0}
