%YAML 1.1
%TAG !u! tag:unity3d.com,2011:
--- !u!21 &2100000
Material:
  serializedVersion: 6
  m_ObjectHideFlags: 0
  m_PrefabParentObject: {fileID: 0}
  m_PrefabInternal: {fileID: 0}
  m_Name: vigamat
  m_Shader: {fileID: 4800000, guid: de6e7720187849c43afb1b06136500b6, type: 3}
  m_ShaderKeywords: ETC1_EXTERNAL_ALPHA _ALPHABLEND_ON _EMISSION _NORMALMAP
  m_LightmapFlags: 0
  m_EnableInstancingVariants: 0
  m_DoubleSidedGI: 0
  m_CustomRenderQueue: -1
  stringTagMap: {}
  disabledShaderPasses: []
  m_SavedProperties:
    serializedVersion: 3
    m_TexEnvs:
    - _Albedo:
        m_Texture: {fileID: 0}
        m_Scale: {x: 1, y: 1}
        m_Offset: {x: 0, y: 0}
    - _BaseColorRGBOutlineWidthA:
        m_Texture: {fileID: 0}
        m_Scale: {x: 1, y: 1}
        m_Offset: {x: 0, y: 0}
    - _BumpMap:
        m_Texture: {fileID: 2800000, guid: 56baff06e9e73c543b56a6d91e01a54e, type: 3}
        m_Scale: {x: 1, y: 1}
        m_Offset: {x: 0, y: 0}
    - _DetailAlbedoMap:
        m_Texture: {fileID: 0}
        m_Scale: {x: 1, y: 1}
        m_Offset: {x: 0, y: 0}
    - _DetailMask:
        m_Texture: {fileID: 0}
        m_Scale: {x: 1, y: 1}
        m_Offset: {x: 0, y: 0}
    - _DetailNormalMap:
        m_Texture: {fileID: 0}
        m_Scale: {x: 1, y: 1}
        m_Offset: {x: 0, y: 0}
    - _Diffuse:
        m_Texture: {fileID: 2800000, guid: a52621b12c07f504cb2c0082037f07c7, type: 3}
        m_Scale: {x: 1, y: 1}
        m_Offset: {x: 0, y: 0}
    - _EmissionMap:
        m_Texture: {fileID: 2800000, guid: 724a840f744b53d4a8443a50d1f2f711, type: 3}
        m_Scale: {x: 1, y: 1}
        m_Offset: {x: 0, y: 0}
    - _Emissivemap:
        m_Texture: {fileID: 2800000, guid: 724a840f744b53d4a8443a50d1f2f711, type: 3}
        m_Scale: {x: 1, y: 1}
        m_Offset: {x: 0, y: 0}
    - _Highlight:
        m_Texture: {fileID: 0}
        m_Scale: {x: 1, y: 1}
        m_Offset: {x: 0, y: 0}
    - _MainTex:
        m_Texture: {fileID: 2800000, guid: a52621b12c07f504cb2c0082037f07c7, type: 3}
        m_Scale: {x: 1, y: 1}
        m_Offset: {x: 0, y: 0}
    - _Metallic:
        m_Texture: {fileID: 0}
        m_Scale: {x: 1, y: 1}
        m_Offset: {x: 0, y: 0}
    - _MetallicGlossMap:
        m_Texture: {fileID: 0}
        m_Scale: {x: 1, y: 1}
        m_Offset: {x: 0, y: 0}
    - _Normal:
        m_Texture: {fileID: 0}
        m_Scale: {x: 1, y: 1}
        m_Offset: {x: 0, y: 0}
    - _NormalMap:
        m_Texture: {fileID: 0}
        m_Scale: {x: 1, y: 1}
        m_Offset: {x: 0, y: 0}
    - _Normals:
        m_Texture: {fileID: 0}
        m_Scale: {x: 1, y: 1}
        m_Offset: {x: 0, y: 0}
    - _Occlusion:
        m_Texture: {fileID: 0}
        m_Scale: {x: 1, y: 1}
        m_Offset: {x: 0, y: 0}
    - _OcclusionMap:
        m_Texture: {fileID: 0}
        m_Scale: {x: 1, y: 1}
        m_Offset: {x: 0, y: 0}
    - _ParallaxMap:
        m_Texture: {fileID: 0}
        m_Scale: {x: 1, y: 1}
        m_Offset: {x: 0, y: 0}
    - _SpecGlossMap:
        m_Texture: {fileID: 0}
        m_Scale: {x: 1, y: 1}
        m_Offset: {x: 0, y: 0}
    - _Specular:
        m_Texture: {fileID: 0}
        m_Scale: {x: 1, y: 1}
        m_Offset: {x: 0, y: 0}
    - _ToonRamp:
        m_Texture: {fileID: 2800000, guid: 52e66a9243cdfed44b5e906f5910d35b, type: 3}
        m_Scale: {x: 1, y: 1}
        m_Offset: {x: 0, y: 0}
    - _normal:
        m_Texture: {fileID: 2800000, guid: 56baff06e9e73c543b56a6d91e01a54e, type: 3}
        m_Scale: {x: 1, y: 1}
        m_Offset: {x: 0, y: 0}
    - _ramp:
        m_Texture: {fileID: 2800000, guid: 78c4a89109b23c640b1588bf9071312e, type: 3}
        m_Scale: {x: 1, y: 1}
        m_Offset: {x: 0, y: 0}
    - _texcoord:
        m_Texture: {fileID: 0}
        m_Scale: {x: 1, y: 1}
        m_Offset: {x: 0, y: 0}
    m_Floats:
    - _ASEOutlineWidth: 0.02
    - _BaseCellOffset: 0
    - _BaseCellSharpness: 0.01
    - _BumpScale: 1
    - _Cutoff: 0.5
    - _DetailNormalMapScale: 1
    - _DstBlend: 10
    - _EmissiveStrenght: 2.4
    - _EndDitheringFade: 1
    - _Float0: 0
    - _GlossMapScale: 1
    - _Glossiness: 0.5
    - _GlossyReflections: 1
    - _HighlightCellOffset: -0.95
    - _HighlightCellSharpness: 0.01
    - _IndirectDiffuseContribution: 1
    - _IndirectSpecularContribution: 1
    - _Metallic: 0
    - _Mode: 2
    - _NoiseContrast: 0.2
    - _Noiseanimated: 0
    - _NormalForce: -0.9
    - _NormalScale: 1
    - _OcclusionStrength: 1
    - _OutlineWidth: 0.02
    - _Parallax: 0.02
    - _RimOffset: 0.24
    - _RimPower: 0.5
    - _ShadowContribution: 0.5
    - _Smoothness: 0
    - _SmoothnessTextureChannel: 0
    - _SpecularHighlights: 1
    - _SrcBlend: 5
    - _StartDitheringFade: 0
    - _StaticHighLights: 0
    - _TessMax: 25
    - _TessMin: 10
    - _TessPhongStrength: 0.5
    - _TessValue: 4
    - _UVSec: 0
    - _UseVertexColor: 1
    - _WaveScale: 0.01
    - _Wavespeed: -0.1
    - _ZWrite: 0
    - __dirty: 0
    - _alpha: 1
    - _emissivePOWEEERR: 1
    - _noisescale: 3
    - _normalpower: 1
    - _tiling: 10
    m_Colors:
    - _ASEOutlineColor: {r: 0, g: 0, b: 0, a: 0}
    - _BaseTint: {r: 1, g: 1, b: 1, a: 0}
    - _Color: {r: 1, g: 1, b: 1, a: 1}
    - _EmissionColor: {r: 1, g: 1, b: 1, a: 1}
    - _EmissiveColor: {r: 1, g: 0, b: 0, a: 1}
    - _HighlightTint: {r: 1, g: 1, b: 1, a: 1}
    - _Noisetile: {r: 10, g: 10, b: 0, a: 0}
    - _OutlineTint: {r: 0.5294118, g: 0.5294118, b: 0.5294118, a: 0}
    - _RimColor: {r: 0, g: 1, b: 0.8758622, a: 0}
    - _emissivecolor: {r: 0, g: 1, b: 0.2156863, a: 0}
    - _emissiveoverlay: {r: 0, g: 0, b: 0, a: 0}
