%YAML 1.1
%TAG !u! tag:unity3d.com,2011:
--- !u!21 &2100000
Material:
  serializedVersion: 6
  m_ObjectHideFlags: 0
  m_PrefabParentObject: {fileID: 0}
  m_PrefabInternal: {fileID: 0}
  m_Name: cerberus_map_mat
  m_Shader: {fileID: 4800000, guid: 4d7a259f3cb56d547b410830de9cab7f, type: 3}
  m_ShaderKeywords: ETC1_EXTERNAL_ALPHA
  m_LightmapFlags: 0
  m_EnableInstancingVariants: 0
  m_DoubleSidedGI: 0
  m_CustomRenderQueue: -1
  stringTagMap: {}
  disabledShaderPasses: []
  m_SavedProperties:
    serializedVersion: 3
    m_TexEnvs:
    - _BumpMap:
        m_Texture: {fileID: 0}
        m_Scale: {x: 1, y: 1}
        m_Offset: {x: 0, y: 0}
    - _DetailAlbedoMap:
        m_Texture: {fileID: 0}
        m_Scale: {x: 1, y: 1}
        m_Offset: {x: 0, y: 0}
    - _DetailMask:
        m_Texture: {fileID: 0}
        m_Scale: {x: 1, y: 1}
        m_Offset: {x: 0, y: 0}
    - _DetailNormalMap:
        m_Texture: {fileID: 0}
        m_Scale: {x: 1, y: 1}
        m_Offset: {x: 0, y: 0}
    - _EmissionMap:
        m_Texture: {fileID: 0}
        m_Scale: {x: 1, y: 1}
        m_Offset: {x: 0, y: 0}
    - _Emissivemap:
        m_Texture: {fileID: 2800000, guid: 78b73f276896ecb4a93c2e21efda71fa, type: 3}
        m_Scale: {x: 1, y: 1}
        m_Offset: {x: 0, y: 0}
    - _MainTex:
        m_Texture: {fileID: 2800000, guid: 09b5589ba46acf84f882411c824caf0d, type: 3}
        m_Scale: {x: 1, y: 1}
        m_Offset: {x: 0, y: 0}
    - _MetallicGlossMap:
        m_Texture: {fileID: 0}
        m_Scale: {x: 1, y: 1}
        m_Offset: {x: 0, y: 0}
    - _Noise:
        m_Texture: {fileID: 2800000, guid: 9789d23040cb1fb45ad60392430c3c15, type: 3}
        m_Scale: {x: 1, y: 1}
        m_Offset: {x: 0, y: 0}
    - _OcclusionMap:
        m_Texture: {fileID: 0}
        m_Scale: {x: 1, y: 1}
        m_Offset: {x: 0, y: 0}
    - _ParallaxMap:
        m_Texture: {fileID: 0}
        m_Scale: {x: 1, y: 1}
        m_Offset: {x: 0, y: 0}
    - _normal:
        m_Texture: {fileID: 2800000, guid: 58f38a8a7a0062d42b7a98cb52c389c5, type: 3}
        m_Scale: {x: 1, y: 1}
        m_Offset: {x: 0, y: 0}
    - _texcoord:
        m_Texture: {fileID: 0}
        m_Scale: {x: 1, y: 1}
        m_Offset: {x: 0, y: 0}
    m_Floats:
    - _BumpScale: 1
    - _Cutoff: 0.5
    - _DetailNormalMapScale: 1
    - _DstBlend: 0
    - _GlossMapScale: 1
    - _Glossiness: 0.5
    - _GlossyReflections: 1
    - _Metallic: 0
    - _Mode: 0
    - _NoiseContrast: 0.5
    - _NoiseTile: 1
    - _Noiseanimated: 0
    - _OcclusionStrength: 1
    - _Parallax: 0.02
    - _Smoothness: 0
    - _SmoothnessTextureChannel: 0
    - _SpecularHighlights: 1
    - _Speed: 0.28
    - _SrcBlend: 1
    - _ToggleSwitch0: 0
    - _UVSec: 0
    - _UseVertexColor: 0
    - _WaveScale: 0.01
    - _Wavespeed: -0.1
    - _ZWrite: 1
    - __dirty: 0
    - _alpha: 1
    - _emissivePOWEEERR: 2
    - _noisescale: 0
    - _normalPOWEEER: 1
    - _normalpower: 1
    - _reversenormalpower: -1
    - _useworldposition: 0
    m_Colors:
    - _Color: {r: 1, g: 1, b: 1, a: 1}
    - _Color0: {r: 1, g: 1, b: 1, a: 0}
    - _EmissionColor: {r: 0, g: 0, b: 0, a: 1}
    - _emissivecolor: {r: 1, g: 0, b: 0, a: 0}
    - _emissiveoverlay: {r: 0, g: 0, b: 0, a: 0}
