%YAML 1.1
%TAG !u! tag:unity3d.com,2011:
--- !u!74 &7400000
AnimationClip:
  m_ObjectHideFlags: 0
  m_PrefabParentObject: {fileID: 0}
  m_PrefabInternal: {fileID: 0}
  m_Name: APOLO_ring_hit
  serializedVersion: 6
  m_Legacy: 0
  m_Compressed: 0
  m_UseHighQualityCurve: 1
  m_RotationCurves: []
  m_CompressedRotationCurves: []
  m_EulerCurves: []
  m_PositionCurves: []
  m_ScaleCurves: []
  m_FloatCurves:
  - curve:
      serializedVersion: 2
      m_Curve:
      - serializedVersion: 2
        time: 0
        value: 1
        inSlope: 0
        outSlope: 0
        tangentMode: 136
      m_PreInfinity: 2
      m_PostInfinity: 2
      m_RotationOrder: 4
    attribute: material._OverlayEmissive.r
    path: apolo_Ring/plugs/plug_7/apolo_plug
    classID: 212
    script: {fileID: 0}
  - curve:
      serializedVersion: 2
      m_Curve:
      - serializedVersion: 2
        time: 0
        value: 0
        inSlope: 0
        outSlope: 0
        tangentMode: 136
      m_PreInfinity: 2
      m_PostInfinity: 2
      m_RotationOrder: 4
    attribute: material._OverlayEmissive.g
    path: apolo_Ring/plugs/plug_7/apolo_plug
    classID: 212
    script: {fileID: 0}
  - curve:
      serializedVersion: 2
      m_Curve:
      - serializedVersion: 2
        time: 0
        value: 0
        inSlope: 0
        outSlope: 0
        tangentMode: 136
      m_PreInfinity: 2
      m_PostInfinity: 2
      m_RotationOrder: 4
    attribute: material._OverlayEmissive.b
    path: apolo_Ring/plugs/plug_7/apolo_plug
    classID: 212
    script: {fileID: 0}
  - curve:
      serializedVersion: 2
      m_Curve:
      - serializedVersion: 2
        time: 0
        value: 0
        inSlope: 0
        outSlope: 0
        tangentMode: 136
      m_PreInfinity: 2
      m_PostInfinity: 2
      m_RotationOrder: 4
    attribute: material._OverlayEmissive.a
    path: apolo_Ring/plugs/plug_7/apolo_plug
    classID: 212
    script: {fileID: 0}
  - curve:
      serializedVersion: 2
      m_Curve:
      - serializedVersion: 2
        time: 0
        value: 1
        inSlope: 0
        outSlope: 0
        tangentMode: 136
      m_PreInfinity: 2
      m_PostInfinity: 2
      m_RotationOrder: 4
    attribute: material._OverlayEmissive.r
    path: apolo_Ring/plugs/plug_7/apolo_plugout
    classID: 212
    script: {fileID: 0}
  - curve:
      serializedVersion: 2
      m_Curve:
      - serializedVersion: 2
        time: 0
        value: 0
        inSlope: 0
        outSlope: 0
        tangentMode: 136
      m_PreInfinity: 2
      m_PostInfinity: 2
      m_RotationOrder: 4
    attribute: material._OverlayEmissive.g
    path: apolo_Ring/plugs/plug_7/apolo_plugout
    classID: 212
    script: {fileID: 0}
  - curve:
      serializedVersion: 2
      m_Curve:
      - serializedVersion: 2
        time: 0
        value: 0
        inSlope: 0
        outSlope: 0
        tangentMode: 136
      m_PreInfinity: 2
      m_PostInfinity: 2
      m_RotationOrder: 4
    attribute: material._OverlayEmissive.b
    path: apolo_Ring/plugs/plug_7/apolo_plugout
    classID: 212
    script: {fileID: 0}
  - curve:
      serializedVersion: 2
      m_Curve:
      - serializedVersion: 2
        time: 0
        value: 0
        inSlope: 0
        outSlope: 0
        tangentMode: 136
      m_PreInfinity: 2
      m_PostInfinity: 2
      m_RotationOrder: 4
    attribute: material._OverlayEmissive.a
    path: apolo_Ring/plugs/plug_7/apolo_plugout
    classID: 212
    script: {fileID: 0}
  - curve:
      serializedVersion: 2
      m_Curve:
      - serializedVersion: 2
        time: 0
        value: 1
        inSlope: 0
        outSlope: 0
        tangentMode: 136
      m_PreInfinity: 2
      m_PostInfinity: 2
      m_RotationOrder: 4
    attribute: material._OverlayEmissive.r
    path: apolo_Ring/plugs/plug_6/apolo_plug
    classID: 212
    script: {fileID: 0}
  - curve:
      serializedVersion: 2
      m_Curve:
      - serializedVersion: 2
        time: 0
        value: 0
        inSlope: 0
        outSlope: 0
        tangentMode: 136
      m_PreInfinity: 2
      m_PostInfinity: 2
      m_RotationOrder: 4
    attribute: material._OverlayEmissive.g
    path: apolo_Ring/plugs/plug_6/apolo_plug
    classID: 212
    script: {fileID: 0}
  - curve:
      serializedVersion: 2
      m_Curve:
      - serializedVersion: 2
        time: 0
        value: 0
        inSlope: 0
        outSlope: 0
        tangentMode: 136
      m_PreInfinity: 2
      m_PostInfinity: 2
      m_RotationOrder: 4
    attribute: material._OverlayEmissive.b
    path: apolo_Ring/plugs/plug_6/apolo_plug
    classID: 212
    script: {fileID: 0}
  - curve:
      serializedVersion: 2
      m_Curve:
      - serializedVersion: 2
        time: 0
        value: 0
        inSlope: 0
        outSlope: 0
        tangentMode: 136
      m_PreInfinity: 2
      m_PostInfinity: 2
      m_RotationOrder: 4
    attribute: material._OverlayEmissive.a
    path: apolo_Ring/plugs/plug_6/apolo_plug
    classID: 212
    script: {fileID: 0}
  - curve:
      serializedVersion: 2
      m_Curve:
      - serializedVersion: 2
        time: 0
        value: 1
        inSlope: 0
        outSlope: 0
        tangentMode: 136
      m_PreInfinity: 2
      m_PostInfinity: 2
      m_RotationOrder: 4
    attribute: material._OverlayEmissive.r
    path: apolo_Ring/plugs/plug_6/apolo_plugout
    classID: 212
    script: {fileID: 0}
  - curve:
      serializedVersion: 2
      m_Curve:
      - serializedVersion: 2
        time: 0
        value: 0
        inSlope: 0
        outSlope: 0
        tangentMode: 136
      m_PreInfinity: 2
      m_PostInfinity: 2
      m_RotationOrder: 4
    attribute: material._OverlayEmissive.g
    path: apolo_Ring/plugs/plug_6/apolo_plugout
    classID: 212
    script: {fileID: 0}
  - curve:
      serializedVersion: 2
      m_Curve:
      - serializedVersion: 2
        time: 0
        value: 0
        inSlope: 0
        outSlope: 0
        tangentMode: 136
      m_PreInfinity: 2
      m_PostInfinity: 2
      m_RotationOrder: 4
    attribute: material._OverlayEmissive.b
    path: apolo_Ring/plugs/plug_6/apolo_plugout
    classID: 212
    script: {fileID: 0}
  - curve:
      serializedVersion: 2
      m_Curve:
      - serializedVersion: 2
        time: 0
        value: 0
        inSlope: 0
        outSlope: 0
        tangentMode: 136
      m_PreInfinity: 2
      m_PostInfinity: 2
      m_RotationOrder: 4
    attribute: material._OverlayEmissive.a
    path: apolo_Ring/plugs/plug_6/apolo_plugout
    classID: 212
    script: {fileID: 0}
  - curve:
      serializedVersion: 2
      m_Curve:
      - serializedVersion: 2
        time: 0
        value: 1
        inSlope: 0
        outSlope: 0
        tangentMode: 136
      m_PreInfinity: 2
      m_PostInfinity: 2
      m_RotationOrder: 4
    attribute: material._OverlayEmissive.r
    path: apolo_Ring/plugs/plug_5/apolo_plug
    classID: 212
    script: {fileID: 0}
  - curve:
      serializedVersion: 2
      m_Curve:
      - serializedVersion: 2
        time: 0
        value: 0
        inSlope: 0
        outSlope: 0
        tangentMode: 136
      m_PreInfinity: 2
      m_PostInfinity: 2
      m_RotationOrder: 4
    attribute: material._OverlayEmissive.g
    path: apolo_Ring/plugs/plug_5/apolo_plug
    classID: 212
    script: {fileID: 0}
  - curve:
      serializedVersion: 2
      m_Curve:
      - serializedVersion: 2
        time: 0
        value: 0
        inSlope: 0
        outSlope: 0
        tangentMode: 136
      m_PreInfinity: 2
      m_PostInfinity: 2
      m_RotationOrder: 4
    attribute: material._OverlayEmissive.b
    path: apolo_Ring/plugs/plug_5/apolo_plug
    classID: 212
    script: {fileID: 0}
  - curve:
      serializedVersion: 2
      m_Curve:
      - serializedVersion: 2
        time: 0
        value: 0
        inSlope: 0
        outSlope: 0
        tangentMode: 136
      m_PreInfinity: 2
      m_PostInfinity: 2
      m_RotationOrder: 4
    attribute: material._OverlayEmissive.a
    path: apolo_Ring/plugs/plug_5/apolo_plug
    classID: 212
    script: {fileID: 0}
  - curve:
      serializedVersion: 2
      m_Curve:
      - serializedVersion: 2
        time: 0
        value: 1
        inSlope: 0
        outSlope: 0
        tangentMode: 136
      m_PreInfinity: 2
      m_PostInfinity: 2
      m_RotationOrder: 4
    attribute: material._OverlayEmissive.r
    path: apolo_Ring/plugs/plug_5/apolo_plugout
    classID: 212
    script: {fileID: 0}
  - curve:
      serializedVersion: 2
      m_Curve:
      - serializedVersion: 2
        time: 0
        value: 0
        inSlope: 0
        outSlope: 0
        tangentMode: 136
      m_PreInfinity: 2
      m_PostInfinity: 2
      m_RotationOrder: 4
    attribute: material._OverlayEmissive.g
    path: apolo_Ring/plugs/plug_5/apolo_plugout
    classID: 212
    script: {fileID: 0}
  - curve:
      serializedVersion: 2
      m_Curve:
      - serializedVersion: 2
        time: 0
        value: 0
        inSlope: 0
        outSlope: 0
        tangentMode: 136
      m_PreInfinity: 2
      m_PostInfinity: 2
      m_RotationOrder: 4
    attribute: material._OverlayEmissive.b
    path: apolo_Ring/plugs/plug_5/apolo_plugout
    classID: 212
    script: {fileID: 0}
  - curve:
      serializedVersion: 2
      m_Curve:
      - serializedVersion: 2
        time: 0
        value: 0
        inSlope: 0
        outSlope: 0
        tangentMode: 136
      m_PreInfinity: 2
      m_PostInfinity: 2
      m_RotationOrder: 4
    attribute: material._OverlayEmissive.a
    path: apolo_Ring/plugs/plug_5/apolo_plugout
    classID: 212
    script: {fileID: 0}
  - curve:
      serializedVersion: 2
      m_Curve:
      - serializedVersion: 2
        time: 0
        value: 1
        inSlope: 0
        outSlope: 0
        tangentMode: 136
      m_PreInfinity: 2
      m_PostInfinity: 2
      m_RotationOrder: 4
    attribute: material._OverlayEmissive.r
    path: apolo_Ring/plugs/plug_4/apolo_plug
    classID: 212
    script: {fileID: 0}
  - curve:
      serializedVersion: 2
      m_Curve:
      - serializedVersion: 2
        time: 0
        value: 0
        inSlope: 0
        outSlope: 0
        tangentMode: 136
      m_PreInfinity: 2
      m_PostInfinity: 2
      m_RotationOrder: 4
    attribute: material._OverlayEmissive.g
    path: apolo_Ring/plugs/plug_4/apolo_plug
    classID: 212
    script: {fileID: 0}
  - curve:
      serializedVersion: 2
      m_Curve:
      - serializedVersion: 2
        time: 0
        value: 0
        inSlope: 0
        outSlope: 0
        tangentMode: 136
      m_PreInfinity: 2
      m_PostInfinity: 2
      m_RotationOrder: 4
    attribute: material._OverlayEmissive.b
    path: apolo_Ring/plugs/plug_4/apolo_plug
    classID: 212
    script: {fileID: 0}
  - curve:
      serializedVersion: 2
      m_Curve:
      - serializedVersion: 2
        time: 0
        value: 0
        inSlope: 0
        outSlope: 0
        tangentMode: 136
      m_PreInfinity: 2
      m_PostInfinity: 2
      m_RotationOrder: 4
    attribute: material._OverlayEmissive.a
    path: apolo_Ring/plugs/plug_4/apolo_plug
    classID: 212
    script: {fileID: 0}
  - curve:
      serializedVersion: 2
      m_Curve:
      - serializedVersion: 2
        time: 0
        value: 1
        inSlope: 0
        outSlope: 0
        tangentMode: 136
      m_PreInfinity: 2
      m_PostInfinity: 2
      m_RotationOrder: 4
    attribute: material._OverlayEmissive.r
    path: apolo_Ring/plugs/plug_4/apolo_plugout
    classID: 212
    script: {fileID: 0}
  - curve:
      serializedVersion: 2
      m_Curve:
      - serializedVersion: 2
        time: 0
        value: 0
        inSlope: 0
        outSlope: 0
        tangentMode: 136
      m_PreInfinity: 2
      m_PostInfinity: 2
      m_RotationOrder: 4
    attribute: material._OverlayEmissive.g
    path: apolo_Ring/plugs/plug_4/apolo_plugout
    classID: 212
    script: {fileID: 0}
  - curve:
      serializedVersion: 2
      m_Curve:
      - serializedVersion: 2
        time: 0
        value: 0
        inSlope: 0
        outSlope: 0
        tangentMode: 136
      m_PreInfinity: 2
      m_PostInfinity: 2
      m_RotationOrder: 4
    attribute: material._OverlayEmissive.b
    path: apolo_Ring/plugs/plug_4/apolo_plugout
    classID: 212
    script: {fileID: 0}
  - curve:
      serializedVersion: 2
      m_Curve:
      - serializedVersion: 2
        time: 0
        value: 0
        inSlope: 0
        outSlope: 0
        tangentMode: 136
      m_PreInfinity: 2
      m_PostInfinity: 2
      m_RotationOrder: 4
    attribute: material._OverlayEmissive.a
    path: apolo_Ring/plugs/plug_4/apolo_plugout
    classID: 212
    script: {fileID: 0}
  - curve:
      serializedVersion: 2
      m_Curve:
      - serializedVersion: 2
        time: 0
        value: 1
        inSlope: 0
        outSlope: 0
        tangentMode: 136
      m_PreInfinity: 2
      m_PostInfinity: 2
      m_RotationOrder: 4
    attribute: material._OverlayEmissive.r
    path: apolo_Ring/plugs/plug_3/apolo_plug
    classID: 212
    script: {fileID: 0}
  - curve:
      serializedVersion: 2
      m_Curve:
      - serializedVersion: 2
        time: 0
        value: 0
        inSlope: 0
        outSlope: 0
        tangentMode: 136
      m_PreInfinity: 2
      m_PostInfinity: 2
      m_RotationOrder: 4
    attribute: material._OverlayEmissive.g
    path: apolo_Ring/plugs/plug_3/apolo_plug
    classID: 212
    script: {fileID: 0}
  - curve:
      serializedVersion: 2
      m_Curve:
      - serializedVersion: 2
        time: 0
        value: 0
        inSlope: 0
        outSlope: 0
        tangentMode: 136
      m_PreInfinity: 2
      m_PostInfinity: 2
      m_RotationOrder: 4
    attribute: material._OverlayEmissive.b
    path: apolo_Ring/plugs/plug_3/apolo_plug
    classID: 212
    script: {fileID: 0}
  - curve:
      serializedVersion: 2
      m_Curve:
      - serializedVersion: 2
        time: 0
        value: 0
        inSlope: 0
        outSlope: 0
        tangentMode: 136
      m_PreInfinity: 2
      m_PostInfinity: 2
      m_RotationOrder: 4
    attribute: material._OverlayEmissive.a
    path: apolo_Ring/plugs/plug_3/apolo_plug
    classID: 212
    script: {fileID: 0}
  - curve:
      serializedVersion: 2
      m_Curve:
      - serializedVersion: 2
        time: 0
        value: 1
        inSlope: 0
        outSlope: 0
        tangentMode: 136
      m_PreInfinity: 2
      m_PostInfinity: 2
      m_RotationOrder: 4
    attribute: material._OverlayEmissive.r
    path: apolo_Ring/plugs/plug_3/apolo_plugout
    classID: 212
    script: {fileID: 0}
  - curve:
      serializedVersion: 2
      m_Curve:
      - serializedVersion: 2
        time: 0
        value: 0
        inSlope: 0
        outSlope: 0
        tangentMode: 136
      m_PreInfinity: 2
      m_PostInfinity: 2
      m_RotationOrder: 4
    attribute: material._OverlayEmissive.g
    path: apolo_Ring/plugs/plug_3/apolo_plugout
    classID: 212
    script: {fileID: 0}
  - curve:
      serializedVersion: 2
      m_Curve:
      - serializedVersion: 2
        time: 0
        value: 0
        inSlope: 0
        outSlope: 0
        tangentMode: 136
      m_PreInfinity: 2
      m_PostInfinity: 2
      m_RotationOrder: 4
    attribute: material._OverlayEmissive.b
    path: apolo_Ring/plugs/plug_3/apolo_plugout
    classID: 212
    script: {fileID: 0}
  - curve:
      serializedVersion: 2
      m_Curve:
      - serializedVersion: 2
        time: 0
        value: 0
        inSlope: 0
        outSlope: 0
        tangentMode: 136
      m_PreInfinity: 2
      m_PostInfinity: 2
      m_RotationOrder: 4
    attribute: material._OverlayEmissive.a
    path: apolo_Ring/plugs/plug_3/apolo_plugout
    classID: 212
    script: {fileID: 0}
  - curve:
      serializedVersion: 2
      m_Curve:
      - serializedVersion: 2
        time: 0
        value: 1
        inSlope: 0
        outSlope: 0
        tangentMode: 136
      m_PreInfinity: 2
      m_PostInfinity: 2
      m_RotationOrder: 4
    attribute: material._OverlayEmissive.r
    path: apolo_Ring/plugs/plug_1/apolo_plug/apolo_spike
    classID: 212
    script: {fileID: 0}
  - curve:
      serializedVersion: 2
      m_Curve:
      - serializedVersion: 2
        time: 0
        value: 0
        inSlope: 0
        outSlope: 0
        tangentMode: 136
      m_PreInfinity: 2
      m_PostInfinity: 2
      m_RotationOrder: 4
    attribute: material._OverlayEmissive.g
    path: apolo_Ring/plugs/plug_1/apolo_plug/apolo_spike
    classID: 212
    script: {fileID: 0}
  - curve:
      serializedVersion: 2
      m_Curve:
      - serializedVersion: 2
        time: 0
        value: 0
        inSlope: 0
        outSlope: 0
        tangentMode: 136
      m_PreInfinity: 2
      m_PostInfinity: 2
      m_RotationOrder: 4
    attribute: material._OverlayEmissive.b
    path: apolo_Ring/plugs/plug_1/apolo_plug/apolo_spike
    classID: 212
    script: {fileID: 0}
  - curve:
      serializedVersion: 2
      m_Curve:
      - serializedVersion: 2
        time: 0
        value: 0
        inSlope: 0
        outSlope: 0
        tangentMode: 136
      m_PreInfinity: 2
      m_PostInfinity: 2
      m_RotationOrder: 4
    attribute: material._OverlayEmissive.a
    path: apolo_Ring/plugs/plug_1/apolo_plug/apolo_spike
    classID: 212
    script: {fileID: 0}
  - curve:
      serializedVersion: 2
      m_Curve:
      - serializedVersion: 2
        time: 0
        value: 1
        inSlope: 0
        outSlope: 0
        tangentMode: 136
      m_PreInfinity: 2
      m_PostInfinity: 2
      m_RotationOrder: 4
    attribute: material._OverlayEmissive.r
    path: apolo_Ring/plugs/plug_8/apolo_spike (1)
    classID: 212
    script: {fileID: 0}
  - curve:
      serializedVersion: 2
      m_Curve:
      - serializedVersion: 2
        time: 0
        value: 0
        inSlope: 0
        outSlope: 0
        tangentMode: 136
      m_PreInfinity: 2
      m_PostInfinity: 2
      m_RotationOrder: 4
    attribute: material._OverlayEmissive.g
    path: apolo_Ring/plugs/plug_8/apolo_spike (1)
    classID: 212
    script: {fileID: 0}
  - curve:
      serializedVersion: 2
      m_Curve:
      - serializedVersion: 2
        time: 0
        value: 0
        inSlope: 0
        outSlope: 0
        tangentMode: 136
      m_PreInfinity: 2
      m_PostInfinity: 2
      m_RotationOrder: 4
    attribute: material._OverlayEmissive.b
    path: apolo_Ring/plugs/plug_8/apolo_spike (1)
    classID: 212
    script: {fileID: 0}
  - curve:
      serializedVersion: 2
      m_Curve:
      - serializedVersion: 2
        time: 0
        value: 0
        inSlope: 0
        outSlope: 0
        tangentMode: 136
      m_PreInfinity: 2
      m_PostInfinity: 2
      m_RotationOrder: 4
    attribute: material._OverlayEmissive.a
    path: apolo_Ring/plugs/plug_8/apolo_spike (1)
    classID: 212
    script: {fileID: 0}
  - curve:
      serializedVersion: 2
      m_Curve:
      - serializedVersion: 2
        time: 0
        value: 1
        inSlope: 0
        outSlope: 0
        tangentMode: 136
      m_PreInfinity: 2
      m_PostInfinity: 2
      m_RotationOrder: 4
    attribute: material._OverlayEmissive.r
    path: apolo_Ring/plugs/plug_1/apolo_plug
    classID: 212
    script: {fileID: 0}
  - curve:
      serializedVersion: 2
      m_Curve:
      - serializedVersion: 2
        time: 0
        value: 0
        inSlope: 0
        outSlope: 0
        tangentMode: 136
      m_PreInfinity: 2
      m_PostInfinity: 2
      m_RotationOrder: 4
    attribute: material._OverlayEmissive.g
    path: apolo_Ring/plugs/plug_1/apolo_plug
    classID: 212
    script: {fileID: 0}
  - curve:
      serializedVersion: 2
      m_Curve:
      - serializedVersion: 2
        time: 0
        value: 0
        inSlope: 0
        outSlope: 0
        tangentMode: 136
      m_PreInfinity: 2
      m_PostInfinity: 2
      m_RotationOrder: 4
    attribute: material._OverlayEmissive.b
    path: apolo_Ring/plugs/plug_1/apolo_plug
    classID: 212
    script: {fileID: 0}
  - curve:
      serializedVersion: 2
      m_Curve:
      - serializedVersion: 2
        time: 0
        value: 0
        inSlope: 0
        outSlope: 0
        tangentMode: 136
      m_PreInfinity: 2
      m_PostInfinity: 2
      m_RotationOrder: 4
    attribute: material._OverlayEmissive.a
    path: apolo_Ring/plugs/plug_1/apolo_plug
    classID: 212
    script: {fileID: 0}
  - curve:
      serializedVersion: 2
      m_Curve:
      - serializedVersion: 2
        time: 0
        value: 1
        inSlope: 0
        outSlope: 0
        tangentMode: 136
      m_PreInfinity: 2
      m_PostInfinity: 2
      m_RotationOrder: 4
    attribute: material._OverlayEmissive.r
    path: apolo_Ring/plugs/plug_8/apolo_plug
    classID: 212
    script: {fileID: 0}
  - curve:
      serializedVersion: 2
      m_Curve:
      - serializedVersion: 2
        time: 0
        value: 0
        inSlope: 0
        outSlope: 0
        tangentMode: 136
      m_PreInfinity: 2
      m_PostInfinity: 2
      m_RotationOrder: 4
    attribute: material._OverlayEmissive.g
    path: apolo_Ring/plugs/plug_8/apolo_plug
    classID: 212
    script: {fileID: 0}
  - curve:
      serializedVersion: 2
      m_Curve:
      - serializedVersion: 2
        time: 0
        value: 0
        inSlope: 0
        outSlope: 0
        tangentMode: 136
      m_PreInfinity: 2
      m_PostInfinity: 2
      m_RotationOrder: 4
    attribute: material._OverlayEmissive.b
    path: apolo_Ring/plugs/plug_8/apolo_plug
    classID: 212
    script: {fileID: 0}
  - curve:
      serializedVersion: 2
      m_Curve:
      - serializedVersion: 2
        time: 0
        value: 0
        inSlope: 0
        outSlope: 0
        tangentMode: 136
      m_PreInfinity: 2
      m_PostInfinity: 2
      m_RotationOrder: 4
    attribute: material._OverlayEmissive.a
    path: apolo_Ring/plugs/plug_8/apolo_plug
    classID: 212
    script: {fileID: 0}
  - curve:
      serializedVersion: 2
      m_Curve:
      - serializedVersion: 2
        time: 0
        value: 1
        inSlope: 0
        outSlope: 0
        tangentMode: 136
      m_PreInfinity: 2
      m_PostInfinity: 2
      m_RotationOrder: 4
    attribute: material._OverlayEmissive.r
    path: apolo_Ring/plugs/plug_2/apolo_plugout
    classID: 212
    script: {fileID: 0}
  - curve:
      serializedVersion: 2
      m_Curve:
      - serializedVersion: 2
        time: 0
        value: 0
        inSlope: 0
        outSlope: 0
        tangentMode: 136
      m_PreInfinity: 2
      m_PostInfinity: 2
      m_RotationOrder: 4
    attribute: material._OverlayEmissive.g
    path: apolo_Ring/plugs/plug_2/apolo_plugout
    classID: 212
    script: {fileID: 0}
  - curve:
      serializedVersion: 2
      m_Curve:
      - serializedVersion: 2
        time: 0
        value: 0
        inSlope: 0
        outSlope: 0
        tangentMode: 136
      m_PreInfinity: 2
      m_PostInfinity: 2
      m_RotationOrder: 4
    attribute: material._OverlayEmissive.b
    path: apolo_Ring/plugs/plug_2/apolo_plugout
    classID: 212
    script: {fileID: 0}
  - curve:
      serializedVersion: 2
      m_Curve:
      - serializedVersion: 2
        time: 0
        value: 0
        inSlope: 0
        outSlope: 0
        tangentMode: 136
      m_PreInfinity: 2
      m_PostInfinity: 2
      m_RotationOrder: 4
    attribute: material._OverlayEmissive.a
    path: apolo_Ring/plugs/plug_2/apolo_plugout
    classID: 212
    script: {fileID: 0}
  - curve:
      serializedVersion: 2
      m_Curve:
      - serializedVersion: 2
        time: 0
        value: 1
        inSlope: 0
        outSlope: 0
        tangentMode: 136
      m_PreInfinity: 2
      m_PostInfinity: 2
      m_RotationOrder: 4
    attribute: material._OverlayEmissive.r
    path: apolo_Ring/plugs/plug_2/apolo_plug
    classID: 212
    script: {fileID: 0}
  - curve:
      serializedVersion: 2
      m_Curve:
      - serializedVersion: 2
        time: 0
        value: 0
        inSlope: 0
        outSlope: 0
        tangentMode: 136
      m_PreInfinity: 2
      m_PostInfinity: 2
      m_RotationOrder: 4
    attribute: material._OverlayEmissive.g
    path: apolo_Ring/plugs/plug_2/apolo_plug
    classID: 212
    script: {fileID: 0}
  - curve:
      serializedVersion: 2
      m_Curve:
      - serializedVersion: 2
        time: 0
        value: 0
        inSlope: 0
        outSlope: 0
        tangentMode: 136
      m_PreInfinity: 2
      m_PostInfinity: 2
      m_RotationOrder: 4
    attribute: material._OverlayEmissive.b
    path: apolo_Ring/plugs/plug_2/apolo_plug
    classID: 212
    script: {fileID: 0}
  - curve:
      serializedVersion: 2
      m_Curve:
      - serializedVersion: 2
        time: 0
        value: 0
        inSlope: 0
        outSlope: 0
        tangentMode: 136
      m_PreInfinity: 2
      m_PostInfinity: 2
      m_RotationOrder: 4
    attribute: material._OverlayEmissive.a
    path: apolo_Ring/plugs/plug_2/apolo_plug
    classID: 212
    script: {fileID: 0}
  - curve:
      serializedVersion: 2
      m_Curve:
      - serializedVersion: 2
        time: 0
        value: 1
        inSlope: 0
        outSlope: 0
        tangentMode: 136
      m_PreInfinity: 2
      m_PostInfinity: 2
      m_RotationOrder: 4
    attribute: material._OverlayEmissive.r
    path: apolo_Ring
    classID: 212
    script: {fileID: 0}
  - curve:
      serializedVersion: 2
      m_Curve:
      - serializedVersion: 2
        time: 0
        value: 0
        inSlope: 0
        outSlope: 0
        tangentMode: 136
      m_PreInfinity: 2
      m_PostInfinity: 2
      m_RotationOrder: 4
    attribute: material._OverlayEmissive.g
    path: apolo_Ring
    classID: 212
    script: {fileID: 0}
  - curve:
      serializedVersion: 2
      m_Curve:
      - serializedVersion: 2
        time: 0
        value: 0
        inSlope: 0
        outSlope: 0
        tangentMode: 136
      m_PreInfinity: 2
      m_PostInfinity: 2
      m_RotationOrder: 4
    attribute: material._OverlayEmissive.b
    path: apolo_Ring
    classID: 212
    script: {fileID: 0}
  - curve:
      serializedVersion: 2
      m_Curve:
      - serializedVersion: 2
        time: 0
        value: 0
        inSlope: 0
        outSlope: 0
        tangentMode: 136
      m_PreInfinity: 2
      m_PostInfinity: 2
      m_RotationOrder: 4
    attribute: material._OverlayEmissive.a
    path: apolo_Ring
    classID: 212
    script: {fileID: 0}
  - curve:
      serializedVersion: 2
      m_Curve:
      - serializedVersion: 2
        time: 0
        value: 1
        inSlope: 0
        outSlope: 0
        tangentMode: 136
      m_PreInfinity: 2
      m_PostInfinity: 2
      m_RotationOrder: 4
    attribute: material._OverlayEmissive.r
    path: apolo_Ring/Spikes/spike (3)/apolo_spikinho
    classID: 212
    script: {fileID: 0}
  - curve:
      serializedVersion: 2
      m_Curve:
      - serializedVersion: 2
        time: 0
        value: 0
        inSlope: 0
        outSlope: 0
        tangentMode: 136
      m_PreInfinity: 2
      m_PostInfinity: 2
      m_RotationOrder: 4
    attribute: material._OverlayEmissive.g
    path: apolo_Ring/Spikes/spike (3)/apolo_spikinho
    classID: 212
    script: {fileID: 0}
  - curve:
      serializedVersion: 2
      m_Curve:
      - serializedVersion: 2
        time: 0
        value: 0
        inSlope: 0
        outSlope: 0
        tangentMode: 136
      m_PreInfinity: 2
      m_PostInfinity: 2
      m_RotationOrder: 4
    attribute: material._OverlayEmissive.b
    path: apolo_Ring/Spikes/spike (3)/apolo_spikinho
    classID: 212
    script: {fileID: 0}
  - curve:
      serializedVersion: 2
      m_Curve:
      - serializedVersion: 2
        time: 0
        value: 0
        inSlope: 0
        outSlope: 0
        tangentMode: 136
      m_PreInfinity: 2
      m_PostInfinity: 2
      m_RotationOrder: 4
    attribute: material._OverlayEmissive.a
    path: apolo_Ring/Spikes/spike (3)/apolo_spikinho
    classID: 212
    script: {fileID: 0}
  - curve:
      serializedVersion: 2
      m_Curve:
      - serializedVersion: 2
        time: 0
        value: 1
        inSlope: 0
        outSlope: 0
        tangentMode: 136
      m_PreInfinity: 2
      m_PostInfinity: 2
      m_RotationOrder: 4
    attribute: material._OverlayEmissive.r
    path: apolo_Ring/Spikes/spike (7)/apolo_spikinho
    classID: 212
    script: {fileID: 0}
  - curve:
      serializedVersion: 2
      m_Curve:
      - serializedVersion: 2
        time: 0
        value: 0
        inSlope: 0
        outSlope: 0
        tangentMode: 136
      m_PreInfinity: 2
      m_PostInfinity: 2
      m_RotationOrder: 4
    attribute: material._OverlayEmissive.g
    path: apolo_Ring/Spikes/spike (7)/apolo_spikinho
    classID: 212
    script: {fileID: 0}
  - curve:
      serializedVersion: 2
      m_Curve:
      - serializedVersion: 2
        time: 0
        value: 0
        inSlope: 0
        outSlope: 0
        tangentMode: 136
      m_PreInfinity: 2
      m_PostInfinity: 2
      m_RotationOrder: 4
    attribute: material._OverlayEmissive.b
    path: apolo_Ring/Spikes/spike (7)/apolo_spikinho
    classID: 212
    script: {fileID: 0}
  - curve:
      serializedVersion: 2
      m_Curve:
      - serializedVersion: 2
        time: 0
        value: 0
        inSlope: 0
        outSlope: 0
        tangentMode: 136
      m_PreInfinity: 2
      m_PostInfinity: 2
      m_RotationOrder: 4
    attribute: material._OverlayEmissive.a
    path: apolo_Ring/Spikes/spike (7)/apolo_spikinho
    classID: 212
    script: {fileID: 0}
  - curve:
      serializedVersion: 2
      m_Curve:
      - serializedVersion: 2
        time: 0
        value: 1
        inSlope: 0
        outSlope: 0
        tangentMode: 136
      m_PreInfinity: 2
      m_PostInfinity: 2
      m_RotationOrder: 4
    attribute: material._OverlayEmissive.r
    path: apolo_Ring/Spikes/spike (1)/apolo_spikinho
    classID: 212
    script: {fileID: 0}
  - curve:
      serializedVersion: 2
      m_Curve:
      - serializedVersion: 2
        time: 0
        value: 0
        inSlope: 0
        outSlope: 0
        tangentMode: 136
      m_PreInfinity: 2
      m_PostInfinity: 2
      m_RotationOrder: 4
    attribute: material._OverlayEmissive.g
    path: apolo_Ring/Spikes/spike (1)/apolo_spikinho
    classID: 212
    script: {fileID: 0}
  - curve:
      serializedVersion: 2
      m_Curve:
      - serializedVersion: 2
        time: 0
        value: 0
        inSlope: 0
        outSlope: 0
        tangentMode: 136
      m_PreInfinity: 2
      m_PostInfinity: 2
      m_RotationOrder: 4
    attribute: material._OverlayEmissive.b
    path: apolo_Ring/Spikes/spike (1)/apolo_spikinho
    classID: 212
    script: {fileID: 0}
  - curve:
      serializedVersion: 2
      m_Curve:
      - serializedVersion: 2
        time: 0
        value: 0
        inSlope: 0
        outSlope: 0
        tangentMode: 136
      m_PreInfinity: 2
      m_PostInfinity: 2
      m_RotationOrder: 4
    attribute: material._OverlayEmissive.a
    path: apolo_Ring/Spikes/spike (1)/apolo_spikinho
    classID: 212
    script: {fileID: 0}
  - curve:
      serializedVersion: 2
      m_Curve:
      - serializedVersion: 2
        time: 0
        value: 1
        inSlope: 0
        outSlope: 0
        tangentMode: 136
      m_PreInfinity: 2
      m_PostInfinity: 2
      m_RotationOrder: 4
    attribute: material._OverlayEmissive.r
    path: apolo_Ring/Spikes/spike/apolo_spikinho
    classID: 212
    script: {fileID: 0}
  - curve:
      serializedVersion: 2
      m_Curve:
      - serializedVersion: 2
        time: 0
        value: 0
        inSlope: 0
        outSlope: 0
        tangentMode: 136
      m_PreInfinity: 2
      m_PostInfinity: 2
      m_RotationOrder: 4
    attribute: material._OverlayEmissive.g
    path: apolo_Ring/Spikes/spike/apolo_spikinho
    classID: 212
    script: {fileID: 0}
  - curve:
      serializedVersion: 2
      m_Curve:
      - serializedVersion: 2
        time: 0
        value: 0
        inSlope: 0
        outSlope: 0
        tangentMode: 136
      m_PreInfinity: 2
      m_PostInfinity: 2
      m_RotationOrder: 4
    attribute: material._OverlayEmissive.b
    path: apolo_Ring/Spikes/spike/apolo_spikinho
    classID: 212
    script: {fileID: 0}
  - curve:
      serializedVersion: 2
      m_Curve:
      - serializedVersion: 2
        time: 0
        value: 0
        inSlope: 0
        outSlope: 0
        tangentMode: 136
      m_PreInfinity: 2
      m_PostInfinity: 2
      m_RotationOrder: 4
    attribute: material._OverlayEmissive.a
    path: apolo_Ring/Spikes/spike/apolo_spikinho
    classID: 212
    script: {fileID: 0}
  - curve:
      serializedVersion: 2
      m_Curve:
      - serializedVersion: 2
        time: 0
        value: 1
        inSlope: 0
        outSlope: 0
        tangentMode: 136
      m_PreInfinity: 2
      m_PostInfinity: 2
      m_RotationOrder: 4
    attribute: material._OverlayEmissive.r
    path: apolo_Ring/Spikes/spike (4)/apolo_spikinho
    classID: 212
    script: {fileID: 0}
  - curve:
      serializedVersion: 2
      m_Curve:
      - serializedVersion: 2
        time: 0
        value: 0
        inSlope: 0
        outSlope: 0
        tangentMode: 136
      m_PreInfinity: 2
      m_PostInfinity: 2
      m_RotationOrder: 4
    attribute: material._OverlayEmissive.g
    path: apolo_Ring/Spikes/spike (4)/apolo_spikinho
    classID: 212
    script: {fileID: 0}
  - curve:
      serializedVersion: 2
      m_Curve:
      - serializedVersion: 2
        time: 0
        value: 0
        inSlope: 0
        outSlope: 0
        tangentMode: 136
      m_PreInfinity: 2
      m_PostInfinity: 2
      m_RotationOrder: 4
    attribute: material._OverlayEmissive.b
    path: apolo_Ring/Spikes/spike (4)/apolo_spikinho
    classID: 212
    script: {fileID: 0}
  - curve:
      serializedVersion: 2
      m_Curve:
      - serializedVersion: 2
        time: 0
        value: 0
        inSlope: 0
        outSlope: 0
        tangentMode: 136
      m_PreInfinity: 2
      m_PostInfinity: 2
      m_RotationOrder: 4
    attribute: material._OverlayEmissive.a
    path: apolo_Ring/Spikes/spike (4)/apolo_spikinho
    classID: 212
    script: {fileID: 0}
  - curve:
      serializedVersion: 2
      m_Curve:
      - serializedVersion: 2
        time: 0
        value: 1
        inSlope: 0
        outSlope: 0
        tangentMode: 136
      m_PreInfinity: 2
      m_PostInfinity: 2
      m_RotationOrder: 4
    attribute: material._OverlayEmissive.r
    path: apolo_Ring/Spikes/spike (5)/apolo_spikinho
    classID: 212
    script: {fileID: 0}
  - curve:
      serializedVersion: 2
      m_Curve:
      - serializedVersion: 2
        time: 0
        value: 0
        inSlope: 0
        outSlope: 0
        tangentMode: 136
      m_PreInfinity: 2
      m_PostInfinity: 2
      m_RotationOrder: 4
    attribute: material._OverlayEmissive.g
    path: apolo_Ring/Spikes/spike (5)/apolo_spikinho
    classID: 212
    script: {fileID: 0}
  - curve:
      serializedVersion: 2
      m_Curve:
      - serializedVersion: 2
        time: 0
        value: 0
        inSlope: 0
        outSlope: 0
        tangentMode: 136
      m_PreInfinity: 2
      m_PostInfinity: 2
      m_RotationOrder: 4
    attribute: material._OverlayEmissive.b
    path: apolo_Ring/Spikes/spike (5)/apolo_spikinho
    classID: 212
    script: {fileID: 0}
  - curve:
      serializedVersion: 2
      m_Curve:
      - serializedVersion: 2
        time: 0
        value: 0
        inSlope: 0
        outSlope: 0
        tangentMode: 136
      m_PreInfinity: 2
      m_PostInfinity: 2
      m_RotationOrder: 4
    attribute: material._OverlayEmissive.a
    path: apolo_Ring/Spikes/spike (5)/apolo_spikinho
    classID: 212
    script: {fileID: 0}
  - curve:
      serializedVersion: 2
      m_Curve:
      - serializedVersion: 2
        time: 0
        value: 1
        inSlope: 0
        outSlope: 0
        tangentMode: 136
      m_PreInfinity: 2
      m_PostInfinity: 2
      m_RotationOrder: 4
    attribute: material._OverlayEmissive.r
    path: apolo_Ring/Spikes/spike (6)/apolo_spikinho
    classID: 212
    script: {fileID: 0}
  - curve:
      serializedVersion: 2
      m_Curve:
      - serializedVersion: 2
        time: 0
        value: 0
        inSlope: 0
        outSlope: 0
        tangentMode: 136
      m_PreInfinity: 2
      m_PostInfinity: 2
      m_RotationOrder: 4
    attribute: material._OverlayEmissive.g
    path: apolo_Ring/Spikes/spike (6)/apolo_spikinho
    classID: 212
    script: {fileID: 0}
  - curve:
      serializedVersion: 2
      m_Curve:
      - serializedVersion: 2
        time: 0
        value: 0
        inSlope: 0
        outSlope: 0
        tangentMode: 136
      m_PreInfinity: 2
      m_PostInfinity: 2
      m_RotationOrder: 4
    attribute: material._OverlayEmissive.b
    path: apolo_Ring/Spikes/spike (6)/apolo_spikinho
    classID: 212
    script: {fileID: 0}
  - curve:
      serializedVersion: 2
      m_Curve:
      - serializedVersion: 2
        time: 0
        value: 0
        inSlope: 0
        outSlope: 0
        tangentMode: 136
      m_PreInfinity: 2
      m_PostInfinity: 2
      m_RotationOrder: 4
    attribute: material._OverlayEmissive.a
    path: apolo_Ring/Spikes/spike (6)/apolo_spikinho
    classID: 212
    script: {fileID: 0}
  - curve:
      serializedVersion: 2
      m_Curve:
      - serializedVersion: 2
        time: 0
        value: 1
        inSlope: 0
        outSlope: 0
        tangentMode: 136
      m_PreInfinity: 2
      m_PostInfinity: 2
      m_RotationOrder: 4
    attribute: material._OverlayEmissive.r
    path: apolo_Ring/Spikes/spike (2)/apolo_spikinho
    classID: 212
    script: {fileID: 0}
  - curve:
      serializedVersion: 2
      m_Curve:
      - serializedVersion: 2
        time: 0
        value: 0
        inSlope: 0
        outSlope: 0
        tangentMode: 136
      m_PreInfinity: 2
      m_PostInfinity: 2
      m_RotationOrder: 4
    attribute: material._OverlayEmissive.g
    path: apolo_Ring/Spikes/spike (2)/apolo_spikinho
    classID: 212
    script: {fileID: 0}
  - curve:
      serializedVersion: 2
      m_Curve:
      - serializedVersion: 2
        time: 0
        value: 0
        inSlope: 0
        outSlope: 0
        tangentMode: 136
      m_PreInfinity: 2
      m_PostInfinity: 2
      m_RotationOrder: 4
    attribute: material._OverlayEmissive.b
    path: apolo_Ring/Spikes/spike (2)/apolo_spikinho
    classID: 212
    script: {fileID: 0}
  - curve:
      serializedVersion: 2
      m_Curve:
      - serializedVersion: 2
        time: 0
        value: 0
        inSlope: 0
        outSlope: 0
        tangentMode: 136
      m_PreInfinity: 2
      m_PostInfinity: 2
      m_RotationOrder: 4
    attribute: material._OverlayEmissive.a
    path: apolo_Ring/Spikes/spike (2)/apolo_spikinho
    classID: 212
    script: {fileID: 0}
  m_PPtrCurves: []
  m_SampleRate: 60
  m_WrapMode: 0
  m_Bounds:
    m_Center: {x: 0, y: 0, z: 0}
    m_Extent: {x: 0, y: 0, z: 0}
  m_ClipBindingConstant:
    genericBindings:
    - serializedVersion: 2
      path: 3400183400
      attribute: 1161059674
      script: {fileID: 0}
      typeID: 212
      customType: 22
      isPPtrCurve: 0
    - serializedVersion: 2
      path: 3400183400
      attribute: 1429495130
      script: {fileID: 0}
      typeID: 212
      customType: 22
      isPPtrCurve: 0
    - serializedVersion: 2
      path: 3400183400
      attribute: 1697930586
      script: {fileID: 0}
      typeID: 212
      customType: 22
      isPPtrCurve: 0
    - serializedVersion: 2
      path: 3400183400
      attribute: 1966366042
      script: {fileID: 0}
      typeID: 212
      customType: 22
      isPPtrCurve: 0
    - serializedVersion: 2
      path: 4188613722
      attribute: 1161059674
      script: {fileID: 0}
      typeID: 212
      customType: 22
      isPPtrCurve: 0
    - serializedVersion: 2
      path: 4188613722
      attribute: 1429495130
      script: {fileID: 0}
      typeID: 212
      customType: 22
      isPPtrCurve: 0
    - serializedVersion: 2
      path: 4188613722
      attribute: 1697930586
      script: {fileID: 0}
      typeID: 212
      customType: 22
      isPPtrCurve: 0
    - serializedVersion: 2
      path: 4188613722
      attribute: 1966366042
      script: {fileID: 0}
      typeID: 212
      customType: 22
      isPPtrCurve: 0
    - serializedVersion: 2
      path: 1359995399
      attribute: 1161059674
      script: {fileID: 0}
      typeID: 212
      customType: 22
      isPPtrCurve: 0
    - serializedVersion: 2
      path: 1359995399
      attribute: 1429495130
      script: {fileID: 0}
      typeID: 212
      customType: 22
      isPPtrCurve: 0
    - serializedVersion: 2
      path: 1359995399
      attribute: 1697930586
      script: {fileID: 0}
      typeID: 212
      customType: 22
      isPPtrCurve: 0
    - serializedVersion: 2
      path: 1359995399
      attribute: 1966366042
      script: {fileID: 0}
      typeID: 212
      customType: 22
      isPPtrCurve: 0
    - serializedVersion: 2
      path: 1079179186
      attribute: 1161059674
      script: {fileID: 0}
      typeID: 212
      customType: 22
      isPPtrCurve: 0
    - serializedVersion: 2
      path: 1079179186
      attribute: 1429495130
      script: {fileID: 0}
      typeID: 212
      customType: 22
      isPPtrCurve: 0
    - serializedVersion: 2
      path: 1079179186
      attribute: 1697930586
      script: {fileID: 0}
      typeID: 212
      customType: 22
      isPPtrCurve: 0
    - serializedVersion: 2
      path: 1079179186
      attribute: 1966366042
      script: {fileID: 0}
      typeID: 212
      customType: 22
      isPPtrCurve: 0
    - serializedVersion: 2
      path: 647049463
      attribute: 1161059674
      script: {fileID: 0}
      typeID: 212
      customType: 22
      isPPtrCurve: 0
    - serializedVersion: 2
      path: 647049463
      attribute: 1429495130
      script: {fileID: 0}
      typeID: 212
      customType: 22
      isPPtrCurve: 0
    - serializedVersion: 2
      path: 647049463
      attribute: 1697930586
      script: {fileID: 0}
      typeID: 212
      customType: 22
      isPPtrCurve: 0
    - serializedVersion: 2
      path: 647049463
      attribute: 1966366042
      script: {fileID: 0}
      typeID: 212
      customType: 22
      isPPtrCurve: 0
    - serializedVersion: 2
      path: 1362075083
      attribute: 1161059674
      script: {fileID: 0}
      typeID: 212
      customType: 22
      isPPtrCurve: 0
    - serializedVersion: 2
      path: 1362075083
      attribute: 1429495130
      script: {fileID: 0}
      typeID: 212
      customType: 22
      isPPtrCurve: 0
    - serializedVersion: 2
      path: 1362075083
      attribute: 1697930586
      script: {fileID: 0}
      typeID: 212
      customType: 22
      isPPtrCurve: 0
    - serializedVersion: 2
      path: 1362075083
      attribute: 1966366042
      script: {fileID: 0}
      typeID: 212
      customType: 22
      isPPtrCurve: 0
    - serializedVersion: 2
      path: 3174333592
      attribute: 1161059674
      script: {fileID: 0}
      typeID: 212
      customType: 22
      isPPtrCurve: 0
    - serializedVersion: 2
      path: 3174333592
      attribute: 1429495130
      script: {fileID: 0}
      typeID: 212
      customType: 22
      isPPtrCurve: 0
    - serializedVersion: 2
      path: 3174333592
      attribute: 1697930586
      script: {fileID: 0}
      typeID: 212
      customType: 22
      isPPtrCurve: 0
    - serializedVersion: 2
      path: 3174333592
      attribute: 1966366042
      script: {fileID: 0}
      typeID: 212
      customType: 22
      isPPtrCurve: 0
    - serializedVersion: 2
      path: 3906225699
      attribute: 1161059674
      script: {fileID: 0}
      typeID: 212
      customType: 22
      isPPtrCurve: 0
    - serializedVersion: 2
      path: 3906225699
      attribute: 1429495130
      script: {fileID: 0}
      typeID: 212
      customType: 22
      isPPtrCurve: 0
    - serializedVersion: 2
      path: 3906225699
      attribute: 1697930586
      script: {fileID: 0}
      typeID: 212
      customType: 22
      isPPtrCurve: 0
    - serializedVersion: 2
      path: 3906225699
      attribute: 1966366042
      script: {fileID: 0}
      typeID: 212
      customType: 22
      isPPtrCurve: 0
    - serializedVersion: 2
      path: 3383530775
      attribute: 1161059674
      script: {fileID: 0}
      typeID: 212
      customType: 22
      isPPtrCurve: 0
    - serializedVersion: 2
      path: 3383530775
      attribute: 1429495130
      script: {fileID: 0}
      typeID: 212
      customType: 22
      isPPtrCurve: 0
    - serializedVersion: 2
      path: 3383530775
      attribute: 1697930586
      script: {fileID: 0}
      typeID: 212
      customType: 22
      isPPtrCurve: 0
    - serializedVersion: 2
      path: 3383530775
      attribute: 1966366042
      script: {fileID: 0}
      typeID: 212
      customType: 22
      isPPtrCurve: 0
    - serializedVersion: 2
      path: 1943357753
      attribute: 1161059674
      script: {fileID: 0}
      typeID: 212
      customType: 22
      isPPtrCurve: 0
    - serializedVersion: 2
      path: 1943357753
      attribute: 1429495130
      script: {fileID: 0}
      typeID: 212
      customType: 22
      isPPtrCurve: 0
    - serializedVersion: 2
      path: 1943357753
      attribute: 1697930586
      script: {fileID: 0}
      typeID: 212
      customType: 22
      isPPtrCurve: 0
    - serializedVersion: 2
      path: 1943357753
      attribute: 1966366042
      script: {fileID: 0}
      typeID: 212
      customType: 22
      isPPtrCurve: 0
    - serializedVersion: 2
      path: 1975129240
      attribute: 1161059674
      script: {fileID: 0}
      typeID: 212
      customType: 22
      isPPtrCurve: 0
    - serializedVersion: 2
      path: 1975129240
      attribute: 1429495130
      script: {fileID: 0}
      typeID: 212
      customType: 22
      isPPtrCurve: 0
    - serializedVersion: 2
      path: 1975129240
      attribute: 1697930586
      script: {fileID: 0}
      typeID: 212
      customType: 22
      isPPtrCurve: 0
    - serializedVersion: 2
      path: 1975129240
      attribute: 1966366042
      script: {fileID: 0}
      typeID: 212
      customType: 22
      isPPtrCurve: 0
    - serializedVersion: 2
      path: 1742242021
      attribute: 1161059674
      script: {fileID: 0}
      typeID: 212
      customType: 22
      isPPtrCurve: 0
    - serializedVersion: 2
      path: 1742242021
      attribute: 1429495130
      script: {fileID: 0}
      typeID: 212
      customType: 22
      isPPtrCurve: 0
    - serializedVersion: 2
      path: 1742242021
      attribute: 1697930586
      script: {fileID: 0}
      typeID: 212
      customType: 22
      isPPtrCurve: 0
    - serializedVersion: 2
      path: 1742242021
      attribute: 1966366042
      script: {fileID: 0}
      typeID: 212
      customType: 22
      isPPtrCurve: 0
    - serializedVersion: 2
      path: 630655880
      attribute: 1161059674
      script: {fileID: 0}
      typeID: 212
      customType: 22
      isPPtrCurve: 0
    - serializedVersion: 2
      path: 630655880
      attribute: 1429495130
      script: {fileID: 0}
      typeID: 212
      customType: 22
      isPPtrCurve: 0
    - serializedVersion: 2
      path: 630655880
      attribute: 1697930586
      script: {fileID: 0}
      typeID: 212
      customType: 22
      isPPtrCurve: 0
    - serializedVersion: 2
      path: 630655880
      attribute: 1966366042
      script: {fileID: 0}
      typeID: 212
      customType: 22
      isPPtrCurve: 0
    - serializedVersion: 2
      path: 3091083545
      attribute: 1161059674
      script: {fileID: 0}
      typeID: 212
      customType: 22
      isPPtrCurve: 0
    - serializedVersion: 2
      path: 3091083545
      attribute: 1429495130
      script: {fileID: 0}
      typeID: 212
      customType: 22
      isPPtrCurve: 0
    - serializedVersion: 2
      path: 3091083545
      attribute: 1697930586
      script: {fileID: 0}
      typeID: 212
      customType: 22
      isPPtrCurve: 0
    - serializedVersion: 2
      path: 3091083545
      attribute: 1966366042
      script: {fileID: 0}
      typeID: 212
      customType: 22
      isPPtrCurve: 0
    - serializedVersion: 2
      path: 3392049873
      attribute: 1161059674
      script: {fileID: 0}
      typeID: 212
      customType: 22
      isPPtrCurve: 0
    - serializedVersion: 2
      path: 3392049873
      attribute: 1429495130
      script: {fileID: 0}
      typeID: 212
      customType: 22
      isPPtrCurve: 0
    - serializedVersion: 2
      path: 3392049873
      attribute: 1697930586
      script: {fileID: 0}
      typeID: 212
      customType: 22
      isPPtrCurve: 0
    - serializedVersion: 2
      path: 3392049873
      attribute: 1966366042
      script: {fileID: 0}
      typeID: 212
      customType: 22
      isPPtrCurve: 0
    - serializedVersion: 2
      path: 1376377208
      attribute: 1161059674
      script: {fileID: 0}
      typeID: 212
      customType: 22
      isPPtrCurve: 0
    - serializedVersion: 2
      path: 1376377208
      attribute: 1429495130
      script: {fileID: 0}
      typeID: 212
      customType: 22
      isPPtrCurve: 0
    - serializedVersion: 2
      path: 1376377208
      attribute: 1697930586
      script: {fileID: 0}
      typeID: 212
      customType: 22
      isPPtrCurve: 0
    - serializedVersion: 2
      path: 1376377208
      attribute: 1966366042
      script: {fileID: 0}
      typeID: 212
      customType: 22
      isPPtrCurve: 0
    - serializedVersion: 2
      path: 630861994
      attribute: 1161059674
      script: {fileID: 0}
      typeID: 212
      customType: 22
      isPPtrCurve: 0
    - serializedVersion: 2
      path: 630861994
      attribute: 1429495130
      script: {fileID: 0}
      typeID: 212
      customType: 22
      isPPtrCurve: 0
    - serializedVersion: 2
      path: 630861994
      attribute: 1697930586
      script: {fileID: 0}
      typeID: 212
      customType: 22
      isPPtrCurve: 0
    - serializedVersion: 2
      path: 630861994
      attribute: 1966366042
      script: {fileID: 0}
      typeID: 212
      customType: 22
      isPPtrCurve: 0
    - serializedVersion: 2
      path: 178390273
      attribute: 1161059674
      script: {fileID: 0}
      typeID: 212
      customType: 22
      isPPtrCurve: 0
    - serializedVersion: 2
      path: 178390273
      attribute: 1429495130
      script: {fileID: 0}
      typeID: 212
      customType: 22
      isPPtrCurve: 0
    - serializedVersion: 2
      path: 178390273
      attribute: 1697930586
      script: {fileID: 0}
      typeID: 212
      customType: 22
      isPPtrCurve: 0
    - serializedVersion: 2
      path: 178390273
      attribute: 1966366042
      script: {fileID: 0}
      typeID: 212
      customType: 22
      isPPtrCurve: 0
    - serializedVersion: 2
      path: 2041193166
      attribute: 1161059674
      script: {fileID: 0}
      typeID: 212
      customType: 22
      isPPtrCurve: 0
    - serializedVersion: 2
      path: 2041193166
      attribute: 1429495130
      script: {fileID: 0}
      typeID: 212
      customType: 22
      isPPtrCurve: 0
    - serializedVersion: 2
      path: 2041193166
      attribute: 1697930586
      script: {fileID: 0}
      typeID: 212
      customType: 22
      isPPtrCurve: 0
    - serializedVersion: 2
      path: 2041193166
      attribute: 1966366042
      script: {fileID: 0}
      typeID: 212
      customType: 22
      isPPtrCurve: 0
    - serializedVersion: 2
      path: 3734934982
      attribute: 1161059674
      script: {fileID: 0}
      typeID: 212
      customType: 22
      isPPtrCurve: 0
    - serializedVersion: 2
      path: 3734934982
      attribute: 1429495130
      script: {fileID: 0}
      typeID: 212
      customType: 22
      isPPtrCurve: 0
    - serializedVersion: 2
      path: 3734934982
      attribute: 1697930586
      script: {fileID: 0}
      typeID: 212
      customType: 22
      isPPtrCurve: 0
    - serializedVersion: 2
      path: 3734934982
      attribute: 1966366042
      script: {fileID: 0}
      typeID: 212
      customType: 22
      isPPtrCurve: 0
    - serializedVersion: 2
      path: 17041505
      attribute: 1161059674
      script: {fileID: 0}
      typeID: 212
      customType: 22
      isPPtrCurve: 0
    - serializedVersion: 2
      path: 17041505
      attribute: 1429495130
      script: {fileID: 0}
      typeID: 212
      customType: 22
      isPPtrCurve: 0
    - serializedVersion: 2
      path: 17041505
      attribute: 1697930586
      script: {fileID: 0}
      typeID: 212
      customType: 22
      isPPtrCurve: 0
    - serializedVersion: 2
      path: 17041505
      attribute: 1966366042
      script: {fileID: 0}
      typeID: 212
      customType: 22
      isPPtrCurve: 0
    - serializedVersion: 2
      path: 707819850
      attribute: 1161059674
      script: {fileID: 0}
      typeID: 212
      customType: 22
      isPPtrCurve: 0
    - serializedVersion: 2
      path: 707819850
      attribute: 1429495130
      script: {fileID: 0}
      typeID: 212
      customType: 22
      isPPtrCurve: 0
    - serializedVersion: 2
      path: 707819850
      attribute: 1697930586
      script: {fileID: 0}
      typeID: 212
      customType: 22
      isPPtrCurve: 0
    - serializedVersion: 2
      path: 707819850
      attribute: 1966366042
      script: {fileID: 0}
      typeID: 212
      customType: 22
      isPPtrCurve: 0
    - serializedVersion: 2
      path: 2912334345
      attribute: 1161059674
      script: {fileID: 0}
      typeID: 212
      customType: 22
      isPPtrCurve: 0
    - serializedVersion: 2
      path: 2912334345
      attribute: 1429495130
      script: {fileID: 0}
      typeID: 212
      customType: 22
      isPPtrCurve: 0
    - serializedVersion: 2
      path: 2912334345
      attribute: 1697930586
      script: {fileID: 0}
      typeID: 212
      customType: 22
      isPPtrCurve: 0
    - serializedVersion: 2
      path: 2912334345
      attribute: 1966366042
      script: {fileID: 0}
      typeID: 212
      customType: 22
      isPPtrCurve: 0
    - serializedVersion: 2
      path: 4262259085
      attribute: 1161059674
      script: {fileID: 0}
      typeID: 212
      customType: 22
      isPPtrCurve: 0
    - serializedVersion: 2
      path: 4262259085
      attribute: 1429495130
      script: {fileID: 0}
      typeID: 212
      customType: 22
      isPPtrCurve: 0
    - serializedVersion: 2
      path: 4262259085
      attribute: 1697930586
      script: {fileID: 0}
      typeID: 212
      customType: 22
      isPPtrCurve: 0
    - serializedVersion: 2
      path: 4262259085
      attribute: 1966366042
      script: {fileID: 0}
      typeID: 212
      customType: 22
      isPPtrCurve: 0
    - serializedVersion: 2
      path: 2365902402
      attribute: 1161059674
      script: {fileID: 0}
      typeID: 212
      customType: 22
      isPPtrCurve: 0
    - serializedVersion: 2
      path: 2365902402
      attribute: 1429495130
      script: {fileID: 0}
      typeID: 212
      customType: 22
      isPPtrCurve: 0
    - serializedVersion: 2
      path: 2365902402
      attribute: 1697930586
      script: {fileID: 0}
      typeID: 212
      customType: 22
      isPPtrCurve: 0
    - serializedVersion: 2
      path: 2365902402
      attribute: 1966366042
      script: {fileID: 0}
      typeID: 212
      customType: 22
      isPPtrCurve: 0
    pptrCurveMapping: []
  m_AnimationClipSettings:
    serializedVersion: 2
    m_AdditiveReferencePoseClip: {fileID: 0}
    m_AdditiveReferencePoseTime: 0
    m_StartTime: 0
    m_StopTime: 0
    m_OrientationOffsetY: 0
    m_Level: 0
    m_CycleOffset: 0
    m_HasAdditiveReferencePose: 0
    m_LoopTime: 0
    m_LoopBlend: 0
    m_LoopBlendOrientation: 0
    m_LoopBlendPositionY: 0
    m_LoopBlendPositionXZ: 0
    m_KeepOriginalOrientation: 0
    m_KeepOriginalPositionY: 1
    m_KeepOriginalPositionXZ: 0
    m_HeightFromFeet: 0
    m_Mirror: 0
  m_EditorCurves:
  - curve:
      serializedVersion: 2
      m_Curve:
      - serializedVersion: 2
        time: 0
        value: 1
        inSlope: 0
        outSlope: 0
        tangentMode: 136
      m_PreInfinity: 2
      m_PostInfinity: 2
      m_RotationOrder: 4
    attribute: material._OverlayEmissive.r
    path: apolo_Ring/plugs/plug_7/apolo_plug
    classID: 212
    script: {fileID: 0}
  - curve:
      serializedVersion: 2
      m_Curve:
      - serializedVersion: 2
        time: 0
        value: 0
        inSlope: 0
        outSlope: 0
        tangentMode: 136
      m_PreInfinity: 2
      m_PostInfinity: 2
      m_RotationOrder: 4
    attribute: material._OverlayEmissive.g
    path: apolo_Ring/plugs/plug_7/apolo_plug
    classID: 212
    script: {fileID: 0}
  - curve:
      serializedVersion: 2
      m_Curve:
      - serializedVersion: 2
        time: 0
        value: 0
        inSlope: 0
        outSlope: 0
        tangentMode: 136
      m_PreInfinity: 2
      m_PostInfinity: 2
      m_RotationOrder: 4
    attribute: material._OverlayEmissive.b
    path: apolo_Ring/plugs/plug_7/apolo_plug
    classID: 212
    script: {fileID: 0}
  - curve:
      serializedVersion: 2
      m_Curve:
      - serializedVersion: 2
        time: 0
        value: 0
        inSlope: 0
        outSlope: 0
        tangentMode: 136
      m_PreInfinity: 2
      m_PostInfinity: 2
      m_RotationOrder: 4
    attribute: material._OverlayEmissive.a
    path: apolo_Ring/plugs/plug_7/apolo_plug
    classID: 212
    script: {fileID: 0}
  - curve:
      serializedVersion: 2
      m_Curve:
      - serializedVersion: 2
        time: 0
        value: 1
        inSlope: 0
        outSlope: 0
        tangentMode: 136
      m_PreInfinity: 2
      m_PostInfinity: 2
      m_RotationOrder: 4
    attribute: material._OverlayEmissive.r
    path: apolo_Ring/plugs/plug_7/apolo_plugout
    classID: 212
    script: {fileID: 0}
  - curve:
      serializedVersion: 2
      m_Curve:
      - serializedVersion: 2
        time: 0
        value: 0
        inSlope: 0
        outSlope: 0
        tangentMode: 136
      m_PreInfinity: 2
      m_PostInfinity: 2
      m_RotationOrder: 4
    attribute: material._OverlayEmissive.g
    path: apolo_Ring/plugs/plug_7/apolo_plugout
    classID: 212
    script: {fileID: 0}
  - curve:
      serializedVersion: 2
      m_Curve:
      - serializedVersion: 2
        time: 0
        value: 0
        inSlope: 0
        outSlope: 0
        tangentMode: 136
      m_PreInfinity: 2
      m_PostInfinity: 2
      m_RotationOrder: 4
    attribute: material._OverlayEmissive.b
    path: apolo_Ring/plugs/plug_7/apolo_plugout
    classID: 212
    script: {fileID: 0}
  - curve:
      serializedVersion: 2
      m_Curve:
      - serializedVersion: 2
        time: 0
        value: 0
        inSlope: 0
        outSlope: 0
        tangentMode: 136
      m_PreInfinity: 2
      m_PostInfinity: 2
      m_RotationOrder: 4
    attribute: material._OverlayEmissive.a
    path: apolo_Ring/plugs/plug_7/apolo_plugout
    classID: 212
    script: {fileID: 0}
  - curve:
      serializedVersion: 2
      m_Curve:
      - serializedVersion: 2
        time: 0
        value: 1
        inSlope: 0
        outSlope: 0
        tangentMode: 136
      m_PreInfinity: 2
      m_PostInfinity: 2
      m_RotationOrder: 4
    attribute: material._OverlayEmissive.r
    path: apolo_Ring/plugs/plug_6/apolo_plug
    classID: 212
    script: {fileID: 0}
  - curve:
      serializedVersion: 2
      m_Curve:
      - serializedVersion: 2
        time: 0
        value: 0
        inSlope: 0
        outSlope: 0
        tangentMode: 136
      m_PreInfinity: 2
      m_PostInfinity: 2
      m_RotationOrder: 4
    attribute: material._OverlayEmissive.g
    path: apolo_Ring/plugs/plug_6/apolo_plug
    classID: 212
    script: {fileID: 0}
  - curve:
      serializedVersion: 2
      m_Curve:
      - serializedVersion: 2
        time: 0
        value: 0
        inSlope: 0
        outSlope: 0
        tangentMode: 136
      m_PreInfinity: 2
      m_PostInfinity: 2
      m_RotationOrder: 4
    attribute: material._OverlayEmissive.b
    path: apolo_Ring/plugs/plug_6/apolo_plug
    classID: 212
    script: {fileID: 0}
  - curve:
      serializedVersion: 2
      m_Curve:
      - serializedVersion: 2
        time: 0
        value: 0
        inSlope: 0
        outSlope: 0
        tangentMode: 136
      m_PreInfinity: 2
      m_PostInfinity: 2
      m_RotationOrder: 4
    attribute: material._OverlayEmissive.a
    path: apolo_Ring/plugs/plug_6/apolo_plug
    classID: 212
    script: {fileID: 0}
  - curve:
      serializedVersion: 2
      m_Curve:
      - serializedVersion: 2
        time: 0
        value: 1
        inSlope: 0
        outSlope: 0
        tangentMode: 136
      m_PreInfinity: 2
      m_PostInfinity: 2
      m_RotationOrder: 4
    attribute: material._OverlayEmissive.r
    path: apolo_Ring/plugs/plug_6/apolo_plugout
    classID: 212
    script: {fileID: 0}
  - curve:
      serializedVersion: 2
      m_Curve:
      - serializedVersion: 2
        time: 0
        value: 0
        inSlope: 0
        outSlope: 0
        tangentMode: 136
      m_PreInfinity: 2
      m_PostInfinity: 2
      m_RotationOrder: 4
    attribute: material._OverlayEmissive.g
    path: apolo_Ring/plugs/plug_6/apolo_plugout
    classID: 212
    script: {fileID: 0}
  - curve:
      serializedVersion: 2
      m_Curve:
      - serializedVersion: 2
        time: 0
        value: 0
        inSlope: 0
        outSlope: 0
        tangentMode: 136
      m_PreInfinity: 2
      m_PostInfinity: 2
      m_RotationOrder: 4
    attribute: material._OverlayEmissive.b
    path: apolo_Ring/plugs/plug_6/apolo_plugout
    classID: 212
    script: {fileID: 0}
  - curve:
      serializedVersion: 2
      m_Curve:
      - serializedVersion: 2
        time: 0
        value: 0
        inSlope: 0
        outSlope: 0
        tangentMode: 136
      m_PreInfinity: 2
      m_PostInfinity: 2
      m_RotationOrder: 4
    attribute: material._OverlayEmissive.a
    path: apolo_Ring/plugs/plug_6/apolo_plugout
    classID: 212
    script: {fileID: 0}
  - curve:
      serializedVersion: 2
      m_Curve:
      - serializedVersion: 2
        time: 0
        value: 1
        inSlope: 0
        outSlope: 0
        tangentMode: 136
      m_PreInfinity: 2
      m_PostInfinity: 2
      m_RotationOrder: 4
    attribute: material._OverlayEmissive.r
    path: apolo_Ring/plugs/plug_5/apolo_plug
    classID: 212
    script: {fileID: 0}
  - curve:
      serializedVersion: 2
      m_Curve:
      - serializedVersion: 2
        time: 0
        value: 0
        inSlope: 0
        outSlope: 0
        tangentMode: 136
      m_PreInfinity: 2
      m_PostInfinity: 2
      m_RotationOrder: 4
    attribute: material._OverlayEmissive.g
    path: apolo_Ring/plugs/plug_5/apolo_plug
    classID: 212
    script: {fileID: 0}
  - curve:
      serializedVersion: 2
      m_Curve:
      - serializedVersion: 2
        time: 0
        value: 0
        inSlope: 0
        outSlope: 0
        tangentMode: 136
      m_PreInfinity: 2
      m_PostInfinity: 2
      m_RotationOrder: 4
    attribute: material._OverlayEmissive.b
    path: apolo_Ring/plugs/plug_5/apolo_plug
    classID: 212
    script: {fileID: 0}
  - curve:
      serializedVersion: 2
      m_Curve:
      - serializedVersion: 2
        time: 0
        value: 0
        inSlope: 0
        outSlope: 0
        tangentMode: 136
      m_PreInfinity: 2
      m_PostInfinity: 2
      m_RotationOrder: 4
    attribute: material._OverlayEmissive.a
    path: apolo_Ring/plugs/plug_5/apolo_plug
    classID: 212
    script: {fileID: 0}
  - curve:
      serializedVersion: 2
      m_Curve:
      - serializedVersion: 2
        time: 0
        value: 1
        inSlope: 0
        outSlope: 0
        tangentMode: 136
      m_PreInfinity: 2
      m_PostInfinity: 2
      m_RotationOrder: 4
    attribute: material._OverlayEmissive.r
    path: apolo_Ring/plugs/plug_5/apolo_plugout
    classID: 212
    script: {fileID: 0}
  - curve:
      serializedVersion: 2
      m_Curve:
      - serializedVersion: 2
        time: 0
        value: 0
        inSlope: 0
        outSlope: 0
        tangentMode: 136
      m_PreInfinity: 2
      m_PostInfinity: 2
      m_RotationOrder: 4
    attribute: material._OverlayEmissive.g
    path: apolo_Ring/plugs/plug_5/apolo_plugout
    classID: 212
    script: {fileID: 0}
  - curve:
      serializedVersion: 2
      m_Curve:
      - serializedVersion: 2
        time: 0
        value: 0
        inSlope: 0
        outSlope: 0
        tangentMode: 136
      m_PreInfinity: 2
      m_PostInfinity: 2
      m_RotationOrder: 4
    attribute: material._OverlayEmissive.b
    path: apolo_Ring/plugs/plug_5/apolo_plugout
    classID: 212
    script: {fileID: 0}
  - curve:
      serializedVersion: 2
      m_Curve:
      - serializedVersion: 2
        time: 0
        value: 0
        inSlope: 0
        outSlope: 0
        tangentMode: 136
      m_PreInfinity: 2
      m_PostInfinity: 2
      m_RotationOrder: 4
    attribute: material._OverlayEmissive.a
    path: apolo_Ring/plugs/plug_5/apolo_plugout
    classID: 212
    script: {fileID: 0}
  - curve:
      serializedVersion: 2
      m_Curve:
      - serializedVersion: 2
        time: 0
        value: 1
        inSlope: 0
        outSlope: 0
        tangentMode: 136
      m_PreInfinity: 2
      m_PostInfinity: 2
      m_RotationOrder: 4
    attribute: material._OverlayEmissive.r
    path: apolo_Ring/plugs/plug_4/apolo_plug
    classID: 212
    script: {fileID: 0}
  - curve:
      serializedVersion: 2
      m_Curve:
      - serializedVersion: 2
        time: 0
        value: 0
        inSlope: 0
        outSlope: 0
        tangentMode: 136
      m_PreInfinity: 2
      m_PostInfinity: 2
      m_RotationOrder: 4
    attribute: material._OverlayEmissive.g
    path: apolo_Ring/plugs/plug_4/apolo_plug
    classID: 212
    script: {fileID: 0}
  - curve:
      serializedVersion: 2
      m_Curve:
      - serializedVersion: 2
        time: 0
        value: 0
        inSlope: 0
        outSlope: 0
        tangentMode: 136
      m_PreInfinity: 2
      m_PostInfinity: 2
      m_RotationOrder: 4
    attribute: material._OverlayEmissive.b
    path: apolo_Ring/plugs/plug_4/apolo_plug
    classID: 212
    script: {fileID: 0}
  - curve:
      serializedVersion: 2
      m_Curve:
      - serializedVersion: 2
        time: 0
        value: 0
        inSlope: 0
        outSlope: 0
        tangentMode: 136
      m_PreInfinity: 2
      m_PostInfinity: 2
      m_RotationOrder: 4
    attribute: material._OverlayEmissive.a
    path: apolo_Ring/plugs/plug_4/apolo_plug
    classID: 212
    script: {fileID: 0}
  - curve:
      serializedVersion: 2
      m_Curve:
      - serializedVersion: 2
        time: 0
        value: 1
        inSlope: 0
        outSlope: 0
        tangentMode: 136
      m_PreInfinity: 2
      m_PostInfinity: 2
      m_RotationOrder: 4
    attribute: material._OverlayEmissive.r
    path: apolo_Ring/plugs/plug_4/apolo_plugout
    classID: 212
    script: {fileID: 0}
  - curve:
      serializedVersion: 2
      m_Curve:
      - serializedVersion: 2
        time: 0
        value: 0
        inSlope: 0
        outSlope: 0
        tangentMode: 136
      m_PreInfinity: 2
      m_PostInfinity: 2
      m_RotationOrder: 4
    attribute: material._OverlayEmissive.g
    path: apolo_Ring/plugs/plug_4/apolo_plugout
    classID: 212
    script: {fileID: 0}
  - curve:
      serializedVersion: 2
      m_Curve:
      - serializedVersion: 2
        time: 0
        value: 0
        inSlope: 0
        outSlope: 0
        tangentMode: 136
      m_PreInfinity: 2
      m_PostInfinity: 2
      m_RotationOrder: 4
    attribute: material._OverlayEmissive.b
    path: apolo_Ring/plugs/plug_4/apolo_plugout
    classID: 212
    script: {fileID: 0}
  - curve:
      serializedVersion: 2
      m_Curve:
      - serializedVersion: 2
        time: 0
        value: 0
        inSlope: 0
        outSlope: 0
        tangentMode: 136
      m_PreInfinity: 2
      m_PostInfinity: 2
      m_RotationOrder: 4
    attribute: material._OverlayEmissive.a
    path: apolo_Ring/plugs/plug_4/apolo_plugout
    classID: 212
    script: {fileID: 0}
  - curve:
      serializedVersion: 2
      m_Curve:
      - serializedVersion: 2
        time: 0
        value: 1
        inSlope: 0
        outSlope: 0
        tangentMode: 136
      m_PreInfinity: 2
      m_PostInfinity: 2
      m_RotationOrder: 4
    attribute: material._OverlayEmissive.r
    path: apolo_Ring/plugs/plug_3/apolo_plug
    classID: 212
    script: {fileID: 0}
  - curve:
      serializedVersion: 2
      m_Curve:
      - serializedVersion: 2
        time: 0
        value: 0
        inSlope: 0
        outSlope: 0
        tangentMode: 136
      m_PreInfinity: 2
      m_PostInfinity: 2
      m_RotationOrder: 4
    attribute: material._OverlayEmissive.g
    path: apolo_Ring/plugs/plug_3/apolo_plug
    classID: 212
    script: {fileID: 0}
  - curve:
      serializedVersion: 2
      m_Curve:
      - serializedVersion: 2
        time: 0
        value: 0
        inSlope: 0
        outSlope: 0
        tangentMode: 136
      m_PreInfinity: 2
      m_PostInfinity: 2
      m_RotationOrder: 4
    attribute: material._OverlayEmissive.b
    path: apolo_Ring/plugs/plug_3/apolo_plug
    classID: 212
    script: {fileID: 0}
  - curve:
      serializedVersion: 2
      m_Curve:
      - serializedVersion: 2
        time: 0
        value: 0
        inSlope: 0
        outSlope: 0
        tangentMode: 136
      m_PreInfinity: 2
      m_PostInfinity: 2
      m_RotationOrder: 4
    attribute: material._OverlayEmissive.a
    path: apolo_Ring/plugs/plug_3/apolo_plug
    classID: 212
    script: {fileID: 0}
  - curve:
      serializedVersion: 2
      m_Curve:
      - serializedVersion: 2
        time: 0
        value: 1
        inSlope: 0
        outSlope: 0
        tangentMode: 136
      m_PreInfinity: 2
      m_PostInfinity: 2
      m_RotationOrder: 4
    attribute: material._OverlayEmissive.r
    path: apolo_Ring/plugs/plug_3/apolo_plugout
    classID: 212
    script: {fileID: 0}
  - curve:
      serializedVersion: 2
      m_Curve:
      - serializedVersion: 2
        time: 0
        value: 0
        inSlope: 0
        outSlope: 0
        tangentMode: 136
      m_PreInfinity: 2
      m_PostInfinity: 2
      m_RotationOrder: 4
    attribute: material._OverlayEmissive.g
    path: apolo_Ring/plugs/plug_3/apolo_plugout
    classID: 212
    script: {fileID: 0}
  - curve:
      serializedVersion: 2
      m_Curve:
      - serializedVersion: 2
        time: 0
        value: 0
        inSlope: 0
        outSlope: 0
        tangentMode: 136
      m_PreInfinity: 2
      m_PostInfinity: 2
      m_RotationOrder: 4
    attribute: material._OverlayEmissive.b
    path: apolo_Ring/plugs/plug_3/apolo_plugout
    classID: 212
    script: {fileID: 0}
  - curve:
      serializedVersion: 2
      m_Curve:
      - serializedVersion: 2
        time: 0
        value: 0
        inSlope: 0
        outSlope: 0
        tangentMode: 136
      m_PreInfinity: 2
      m_PostInfinity: 2
      m_RotationOrder: 4
    attribute: material._OverlayEmissive.a
    path: apolo_Ring/plugs/plug_3/apolo_plugout
    classID: 212
    script: {fileID: 0}
  - curve:
      serializedVersion: 2
      m_Curve:
      - serializedVersion: 2
        time: 0
        value: 1
        inSlope: 0
        outSlope: 0
        tangentMode: 136
      m_PreInfinity: 2
      m_PostInfinity: 2
      m_RotationOrder: 4
    attribute: material._OverlayEmissive.r
    path: apolo_Ring/plugs/plug_1/apolo_plug/apolo_spike
    classID: 212
    script: {fileID: 0}
  - curve:
      serializedVersion: 2
      m_Curve:
      - serializedVersion: 2
        time: 0
        value: 0
        inSlope: 0
        outSlope: 0
        tangentMode: 136
      m_PreInfinity: 2
      m_PostInfinity: 2
      m_RotationOrder: 4
    attribute: material._OverlayEmissive.g
    path: apolo_Ring/plugs/plug_1/apolo_plug/apolo_spike
    classID: 212
    script: {fileID: 0}
  - curve:
      serializedVersion: 2
      m_Curve:
      - serializedVersion: 2
        time: 0
        value: 0
        inSlope: 0
        outSlope: 0
        tangentMode: 136
      m_PreInfinity: 2
      m_PostInfinity: 2
      m_RotationOrder: 4
    attribute: material._OverlayEmissive.b
    path: apolo_Ring/plugs/plug_1/apolo_plug/apolo_spike
    classID: 212
    script: {fileID: 0}
  - curve:
      serializedVersion: 2
      m_Curve:
      - serializedVersion: 2
        time: 0
        value: 0
        inSlope: 0
        outSlope: 0
        tangentMode: 136
      m_PreInfinity: 2
      m_PostInfinity: 2
      m_RotationOrder: 4
    attribute: material._OverlayEmissive.a
    path: apolo_Ring/plugs/plug_1/apolo_plug/apolo_spike
    classID: 212
    script: {fileID: 0}
  - curve:
      serializedVersion: 2
      m_Curve:
      - serializedVersion: 2
        time: 0
        value: 1
        inSlope: 0
        outSlope: 0
        tangentMode: 136
      m_PreInfinity: 2
      m_PostInfinity: 2
      m_RotationOrder: 4
    attribute: material._OverlayEmissive.r
    path: apolo_Ring/plugs/plug_8/apolo_spike (1)
    classID: 212
    script: {fileID: 0}
  - curve:
      serializedVersion: 2
      m_Curve:
      - serializedVersion: 2
        time: 0
        value: 0
        inSlope: 0
        outSlope: 0
        tangentMode: 136
      m_PreInfinity: 2
      m_PostInfinity: 2
      m_RotationOrder: 4
    attribute: material._OverlayEmissive.g
    path: apolo_Ring/plugs/plug_8/apolo_spike (1)
    classID: 212
    script: {fileID: 0}
  - curve:
      serializedVersion: 2
      m_Curve:
      - serializedVersion: 2
        time: 0
        value: 0
        inSlope: 0
        outSlope: 0
        tangentMode: 136
      m_PreInfinity: 2
      m_PostInfinity: 2
      m_RotationOrder: 4
    attribute: material._OverlayEmissive.b
    path: apolo_Ring/plugs/plug_8/apolo_spike (1)
    classID: 212
    script: {fileID: 0}
  - curve:
      serializedVersion: 2
      m_Curve:
      - serializedVersion: 2
        time: 0
        value: 0
        inSlope: 0
        outSlope: 0
        tangentMode: 136
      m_PreInfinity: 2
      m_PostInfinity: 2
      m_RotationOrder: 4
    attribute: material._OverlayEmissive.a
    path: apolo_Ring/plugs/plug_8/apolo_spike (1)
    classID: 212
    script: {fileID: 0}
  - curve:
      serializedVersion: 2
      m_Curve:
      - serializedVersion: 2
        time: 0
        value: 1
        inSlope: 0
        outSlope: 0
        tangentMode: 136
      m_PreInfinity: 2
      m_PostInfinity: 2
      m_RotationOrder: 4
    attribute: material._OverlayEmissive.r
    path: apolo_Ring/plugs/plug_1/apolo_plug
    classID: 212
    script: {fileID: 0}
  - curve:
      serializedVersion: 2
      m_Curve:
      - serializedVersion: 2
        time: 0
        value: 0
        inSlope: 0
        outSlope: 0
        tangentMode: 136
      m_PreInfinity: 2
      m_PostInfinity: 2
      m_RotationOrder: 4
    attribute: material._OverlayEmissive.g
    path: apolo_Ring/plugs/plug_1/apolo_plug
    classID: 212
    script: {fileID: 0}
  - curve:
      serializedVersion: 2
      m_Curve:
      - serializedVersion: 2
        time: 0
        value: 0
        inSlope: 0
        outSlope: 0
        tangentMode: 136
      m_PreInfinity: 2
      m_PostInfinity: 2
      m_RotationOrder: 4
    attribute: material._OverlayEmissive.b
    path: apolo_Ring/plugs/plug_1/apolo_plug
    classID: 212
    script: {fileID: 0}
  - curve:
      serializedVersion: 2
      m_Curve:
      - serializedVersion: 2
        time: 0
        value: 0
        inSlope: 0
        outSlope: 0
        tangentMode: 136
      m_PreInfinity: 2
      m_PostInfinity: 2
      m_RotationOrder: 4
    attribute: material._OverlayEmissive.a
    path: apolo_Ring/plugs/plug_1/apolo_plug
    classID: 212
    script: {fileID: 0}
  - curve:
      serializedVersion: 2
      m_Curve:
      - serializedVersion: 2
        time: 0
        value: 1
        inSlope: 0
        outSlope: 0
        tangentMode: 136
      m_PreInfinity: 2
      m_PostInfinity: 2
      m_RotationOrder: 4
    attribute: material._OverlayEmissive.r
    path: apolo_Ring/plugs/plug_8/apolo_plug
    classID: 212
    script: {fileID: 0}
  - curve:
      serializedVersion: 2
      m_Curve:
      - serializedVersion: 2
        time: 0
        value: 0
        inSlope: 0
        outSlope: 0
        tangentMode: 136
      m_PreInfinity: 2
      m_PostInfinity: 2
      m_RotationOrder: 4
    attribute: material._OverlayEmissive.g
    path: apolo_Ring/plugs/plug_8/apolo_plug
    classID: 212
    script: {fileID: 0}
  - curve:
      serializedVersion: 2
      m_Curve:
      - serializedVersion: 2
        time: 0
        value: 0
        inSlope: 0
        outSlope: 0
        tangentMode: 136
      m_PreInfinity: 2
      m_PostInfinity: 2
      m_RotationOrder: 4
    attribute: material._OverlayEmissive.b
    path: apolo_Ring/plugs/plug_8/apolo_plug
    classID: 212
    script: {fileID: 0}
  - curve:
      serializedVersion: 2
      m_Curve:
      - serializedVersion: 2
        time: 0
        value: 0
        inSlope: 0
        outSlope: 0
        tangentMode: 136
      m_PreInfinity: 2
      m_PostInfinity: 2
      m_RotationOrder: 4
    attribute: material._OverlayEmissive.a
    path: apolo_Ring/plugs/plug_8/apolo_plug
    classID: 212
    script: {fileID: 0}
  - curve:
      serializedVersion: 2
      m_Curve:
      - serializedVersion: 2
        time: 0
        value: 1
        inSlope: 0
        outSlope: 0
        tangentMode: 136
      m_PreInfinity: 2
      m_PostInfinity: 2
      m_RotationOrder: 4
    attribute: material._OverlayEmissive.r
    path: apolo_Ring/plugs/plug_2/apolo_plugout
    classID: 212
    script: {fileID: 0}
  - curve:
      serializedVersion: 2
      m_Curve:
      - serializedVersion: 2
        time: 0
        value: 0
        inSlope: 0
        outSlope: 0
        tangentMode: 136
      m_PreInfinity: 2
      m_PostInfinity: 2
      m_RotationOrder: 4
    attribute: material._OverlayEmissive.g
    path: apolo_Ring/plugs/plug_2/apolo_plugout
    classID: 212
    script: {fileID: 0}
  - curve:
      serializedVersion: 2
      m_Curve:
      - serializedVersion: 2
        time: 0
        value: 0
        inSlope: 0
        outSlope: 0
        tangentMode: 136
      m_PreInfinity: 2
      m_PostInfinity: 2
      m_RotationOrder: 4
    attribute: material._OverlayEmissive.b
    path: apolo_Ring/plugs/plug_2/apolo_plugout
    classID: 212
    script: {fileID: 0}
  - curve:
      serializedVersion: 2
      m_Curve:
      - serializedVersion: 2
        time: 0
        value: 0
        inSlope: 0
        outSlope: 0
        tangentMode: 136
      m_PreInfinity: 2
      m_PostInfinity: 2
      m_RotationOrder: 4
    attribute: material._OverlayEmissive.a
    path: apolo_Ring/plugs/plug_2/apolo_plugout
    classID: 212
    script: {fileID: 0}
  - curve:
      serializedVersion: 2
      m_Curve:
      - serializedVersion: 2
        time: 0
        value: 1
        inSlope: 0
        outSlope: 0
        tangentMode: 136
      m_PreInfinity: 2
      m_PostInfinity: 2
      m_RotationOrder: 4
    attribute: material._OverlayEmissive.r
    path: apolo_Ring/plugs/plug_2/apolo_plug
    classID: 212
    script: {fileID: 0}
  - curve:
      serializedVersion: 2
      m_Curve:
      - serializedVersion: 2
        time: 0
        value: 0
        inSlope: 0
        outSlope: 0
        tangentMode: 136
      m_PreInfinity: 2
      m_PostInfinity: 2
      m_RotationOrder: 4
    attribute: material._OverlayEmissive.g
    path: apolo_Ring/plugs/plug_2/apolo_plug
    classID: 212
    script: {fileID: 0}
  - curve:
      serializedVersion: 2
      m_Curve:
      - serializedVersion: 2
        time: 0
        value: 0
        inSlope: 0
        outSlope: 0
        tangentMode: 136
      m_PreInfinity: 2
      m_PostInfinity: 2
      m_RotationOrder: 4
    attribute: material._OverlayEmissive.b
    path: apolo_Ring/plugs/plug_2/apolo_plug
    classID: 212
    script: {fileID: 0}
  - curve:
      serializedVersion: 2
      m_Curve:
      - serializedVersion: 2
        time: 0
        value: 0
        inSlope: 0
        outSlope: 0
        tangentMode: 136
      m_PreInfinity: 2
      m_PostInfinity: 2
      m_RotationOrder: 4
    attribute: material._OverlayEmissive.a
    path: apolo_Ring/plugs/plug_2/apolo_plug
    classID: 212
    script: {fileID: 0}
  - curve:
      serializedVersion: 2
      m_Curve:
      - serializedVersion: 2
        time: 0
        value: 1
        inSlope: 0
        outSlope: 0
        tangentMode: 136
      m_PreInfinity: 2
      m_PostInfinity: 2
      m_RotationOrder: 4
    attribute: material._OverlayEmissive.r
    path: apolo_Ring
    classID: 212
    script: {fileID: 0}
  - curve:
      serializedVersion: 2
      m_Curve:
      - serializedVersion: 2
        time: 0
        value: 0
        inSlope: 0
        outSlope: 0
        tangentMode: 136
      m_PreInfinity: 2
      m_PostInfinity: 2
      m_RotationOrder: 4
    attribute: material._OverlayEmissive.g
    path: apolo_Ring
    classID: 212
    script: {fileID: 0}
  - curve:
      serializedVersion: 2
      m_Curve:
      - serializedVersion: 2
        time: 0
        value: 0
        inSlope: 0
        outSlope: 0
        tangentMode: 136
      m_PreInfinity: 2
      m_PostInfinity: 2
      m_RotationOrder: 4
    attribute: material._OverlayEmissive.b
    path: apolo_Ring
    classID: 212
    script: {fileID: 0}
  - curve:
      serializedVersion: 2
      m_Curve:
      - serializedVersion: 2
        time: 0
        value: 0
        inSlope: 0
        outSlope: 0
        tangentMode: 136
      m_PreInfinity: 2
      m_PostInfinity: 2
      m_RotationOrder: 4
    attribute: material._OverlayEmissive.a
    path: apolo_Ring
    classID: 212
    script: {fileID: 0}
  - curve:
      serializedVersion: 2
      m_Curve:
      - serializedVersion: 2
        time: 0
        value: 1
        inSlope: 0
        outSlope: 0
        tangentMode: 136
      m_PreInfinity: 2
      m_PostInfinity: 2
      m_RotationOrder: 4
    attribute: material._OverlayEmissive.r
    path: apolo_Ring/Spikes/spike (3)/apolo_spikinho
    classID: 212
    script: {fileID: 0}
  - curve:
      serializedVersion: 2
      m_Curve:
      - serializedVersion: 2
        time: 0
        value: 0
        inSlope: 0
        outSlope: 0
        tangentMode: 136
      m_PreInfinity: 2
      m_PostInfinity: 2
      m_RotationOrder: 4
    attribute: material._OverlayEmissive.g
    path: apolo_Ring/Spikes/spike (3)/apolo_spikinho
    classID: 212
    script: {fileID: 0}
  - curve:
      serializedVersion: 2
      m_Curve:
      - serializedVersion: 2
        time: 0
        value: 0
        inSlope: 0
        outSlope: 0
        tangentMode: 136
      m_PreInfinity: 2
      m_PostInfinity: 2
      m_RotationOrder: 4
    attribute: material._OverlayEmissive.b
    path: apolo_Ring/Spikes/spike (3)/apolo_spikinho
    classID: 212
    script: {fileID: 0}
  - curve:
      serializedVersion: 2
      m_Curve:
      - serializedVersion: 2
        time: 0
        value: 0
        inSlope: 0
        outSlope: 0
        tangentMode: 136
      m_PreInfinity: 2
      m_PostInfinity: 2
      m_RotationOrder: 4
    attribute: material._OverlayEmissive.a
    path: apolo_Ring/Spikes/spike (3)/apolo_spikinho
    classID: 212
    script: {fileID: 0}
  - curve:
      serializedVersion: 2
      m_Curve:
      - serializedVersion: 2
        time: 0
        value: 1
        inSlope: 0
        outSlope: 0
        tangentMode: 136
      m_PreInfinity: 2
      m_PostInfinity: 2
      m_RotationOrder: 4
    attribute: material._OverlayEmissive.r
    path: apolo_Ring/Spikes/spike (7)/apolo_spikinho
    classID: 212
    script: {fileID: 0}
  - curve:
      serializedVersion: 2
      m_Curve:
      - serializedVersion: 2
        time: 0
        value: 0
        inSlope: 0
        outSlope: 0
        tangentMode: 136
      m_PreInfinity: 2
      m_PostInfinity: 2
      m_RotationOrder: 4
    attribute: material._OverlayEmissive.g
    path: apolo_Ring/Spikes/spike (7)/apolo_spikinho
    classID: 212
    script: {fileID: 0}
  - curve:
      serializedVersion: 2
      m_Curve:
      - serializedVersion: 2
        time: 0
        value: 0
        inSlope: 0
        outSlope: 0
        tangentMode: 136
      m_PreInfinity: 2
      m_PostInfinity: 2
      m_RotationOrder: 4
    attribute: material._OverlayEmissive.b
    path: apolo_Ring/Spikes/spike (7)/apolo_spikinho
    classID: 212
    script: {fileID: 0}
  - curve:
      serializedVersion: 2
      m_Curve:
      - serializedVersion: 2
        time: 0
        value: 0
        inSlope: 0
        outSlope: 0
        tangentMode: 136
      m_PreInfinity: 2
      m_PostInfinity: 2
      m_RotationOrder: 4
    attribute: material._OverlayEmissive.a
    path: apolo_Ring/Spikes/spike (7)/apolo_spikinho
    classID: 212
    script: {fileID: 0}
  - curve:
      serializedVersion: 2
      m_Curve:
      - serializedVersion: 2
        time: 0
        value: 1
        inSlope: 0
        outSlope: 0
        tangentMode: 136
      m_PreInfinity: 2
      m_PostInfinity: 2
      m_RotationOrder: 4
    attribute: material._OverlayEmissive.r
    path: apolo_Ring/Spikes/spike (1)/apolo_spikinho
    classID: 212
    script: {fileID: 0}
  - curve:
      serializedVersion: 2
      m_Curve:
      - serializedVersion: 2
        time: 0
        value: 0
        inSlope: 0
        outSlope: 0
        tangentMode: 136
      m_PreInfinity: 2
      m_PostInfinity: 2
      m_RotationOrder: 4
    attribute: material._OverlayEmissive.g
    path: apolo_Ring/Spikes/spike (1)/apolo_spikinho
    classID: 212
    script: {fileID: 0}
  - curve:
      serializedVersion: 2
      m_Curve:
      - serializedVersion: 2
        time: 0
        value: 0
        inSlope: 0
        outSlope: 0
        tangentMode: 136
      m_PreInfinity: 2
      m_PostInfinity: 2
      m_RotationOrder: 4
    attribute: material._OverlayEmissive.b
    path: apolo_Ring/Spikes/spike (1)/apolo_spikinho
    classID: 212
    script: {fileID: 0}
  - curve:
      serializedVersion: 2
      m_Curve:
      - serializedVersion: 2
        time: 0
        value: 0
        inSlope: 0
        outSlope: 0
        tangentMode: 136
      m_PreInfinity: 2
      m_PostInfinity: 2
      m_RotationOrder: 4
    attribute: material._OverlayEmissive.a
    path: apolo_Ring/Spikes/spike (1)/apolo_spikinho
    classID: 212
    script: {fileID: 0}
  - curve:
      serializedVersion: 2
      m_Curve:
      - serializedVersion: 2
        time: 0
        value: 1
        inSlope: 0
        outSlope: 0
        tangentMode: 136
      m_PreInfinity: 2
      m_PostInfinity: 2
      m_RotationOrder: 4
    attribute: material._OverlayEmissive.r
    path: apolo_Ring/Spikes/spike/apolo_spikinho
    classID: 212
    script: {fileID: 0}
  - curve:
      serializedVersion: 2
      m_Curve:
      - serializedVersion: 2
        time: 0
        value: 0
        inSlope: 0
        outSlope: 0
        tangentMode: 136
      m_PreInfinity: 2
      m_PostInfinity: 2
      m_RotationOrder: 4
    attribute: material._OverlayEmissive.g
    path: apolo_Ring/Spikes/spike/apolo_spikinho
    classID: 212
    script: {fileID: 0}
  - curve:
      serializedVersion: 2
      m_Curve:
      - serializedVersion: 2
        time: 0
        value: 0
        inSlope: 0
        outSlope: 0
        tangentMode: 136
      m_PreInfinity: 2
      m_PostInfinity: 2
      m_RotationOrder: 4
    attribute: material._OverlayEmissive.b
    path: apolo_Ring/Spikes/spike/apolo_spikinho
    classID: 212
    script: {fileID: 0}
  - curve:
      serializedVersion: 2
      m_Curve:
      - serializedVersion: 2
        time: 0
        value: 0
        inSlope: 0
        outSlope: 0
        tangentMode: 136
      m_PreInfinity: 2
      m_PostInfinity: 2
      m_RotationOrder: 4
    attribute: material._OverlayEmissive.a
    path: apolo_Ring/Spikes/spike/apolo_spikinho
    classID: 212
    script: {fileID: 0}
  - curve:
      serializedVersion: 2
      m_Curve:
      - serializedVersion: 2
        time: 0
        value: 1
        inSlope: 0
        outSlope: 0
        tangentMode: 136
      m_PreInfinity: 2
      m_PostInfinity: 2
      m_RotationOrder: 4
    attribute: material._OverlayEmissive.r
    path: apolo_Ring/Spikes/spike (4)/apolo_spikinho
    classID: 212
    script: {fileID: 0}
  - curve:
      serializedVersion: 2
      m_Curve:
      - serializedVersion: 2
        time: 0
        value: 0
        inSlope: 0
        outSlope: 0
        tangentMode: 136
      m_PreInfinity: 2
      m_PostInfinity: 2
      m_RotationOrder: 4
    attribute: material._OverlayEmissive.g
    path: apolo_Ring/Spikes/spike (4)/apolo_spikinho
    classID: 212
    script: {fileID: 0}
  - curve:
      serializedVersion: 2
      m_Curve:
      - serializedVersion: 2
        time: 0
        value: 0
        inSlope: 0
        outSlope: 0
        tangentMode: 136
      m_PreInfinity: 2
      m_PostInfinity: 2
      m_RotationOrder: 4
    attribute: material._OverlayEmissive.b
    path: apolo_Ring/Spikes/spike (4)/apolo_spikinho
    classID: 212
    script: {fileID: 0}
  - curve:
      serializedVersion: 2
      m_Curve:
      - serializedVersion: 2
        time: 0
        value: 0
        inSlope: 0
        outSlope: 0
        tangentMode: 136
      m_PreInfinity: 2
      m_PostInfinity: 2
      m_RotationOrder: 4
    attribute: material._OverlayEmissive.a
    path: apolo_Ring/Spikes/spike (4)/apolo_spikinho
    classID: 212
    script: {fileID: 0}
  - curve:
      serializedVersion: 2
      m_Curve:
      - serializedVersion: 2
        time: 0
        value: 1
        inSlope: 0
        outSlope: 0
        tangentMode: 136
      m_PreInfinity: 2
      m_PostInfinity: 2
      m_RotationOrder: 4
    attribute: material._OverlayEmissive.r
    path: apolo_Ring/Spikes/spike (5)/apolo_spikinho
    classID: 212
    script: {fileID: 0}
  - curve:
      serializedVersion: 2
      m_Curve:
      - serializedVersion: 2
        time: 0
        value: 0
        inSlope: 0
        outSlope: 0
        tangentMode: 136
      m_PreInfinity: 2
      m_PostInfinity: 2
      m_RotationOrder: 4
    attribute: material._OverlayEmissive.g
    path: apolo_Ring/Spikes/spike (5)/apolo_spikinho
    classID: 212
    script: {fileID: 0}
  - curve:
      serializedVersion: 2
      m_Curve:
      - serializedVersion: 2
        time: 0
        value: 0
        inSlope: 0
        outSlope: 0
        tangentMode: 136
      m_PreInfinity: 2
      m_PostInfinity: 2
      m_RotationOrder: 4
    attribute: material._OverlayEmissive.b
    path: apolo_Ring/Spikes/spike (5)/apolo_spikinho
    classID: 212
    script: {fileID: 0}
  - curve:
      serializedVersion: 2
      m_Curve:
      - serializedVersion: 2
        time: 0
        value: 0
        inSlope: 0
        outSlope: 0
        tangentMode: 136
      m_PreInfinity: 2
      m_PostInfinity: 2
      m_RotationOrder: 4
    attribute: material._OverlayEmissive.a
    path: apolo_Ring/Spikes/spike (5)/apolo_spikinho
    classID: 212
    script: {fileID: 0}
  - curve:
      serializedVersion: 2
      m_Curve:
      - serializedVersion: 2
        time: 0
        value: 1
        inSlope: 0
        outSlope: 0
        tangentMode: 136
      m_PreInfinity: 2
      m_PostInfinity: 2
      m_RotationOrder: 4
    attribute: material._OverlayEmissive.r
    path: apolo_Ring/Spikes/spike (6)/apolo_spikinho
    classID: 212
    script: {fileID: 0}
  - curve:
      serializedVersion: 2
      m_Curve:
      - serializedVersion: 2
        time: 0
        value: 0
        inSlope: 0
        outSlope: 0
        tangentMode: 136
      m_PreInfinity: 2
      m_PostInfinity: 2
      m_RotationOrder: 4
    attribute: material._OverlayEmissive.g
    path: apolo_Ring/Spikes/spike (6)/apolo_spikinho
    classID: 212
    script: {fileID: 0}
  - curve:
      serializedVersion: 2
      m_Curve:
      - serializedVersion: 2
        time: 0
        value: 0
        inSlope: 0
        outSlope: 0
        tangentMode: 136
      m_PreInfinity: 2
      m_PostInfinity: 2
      m_RotationOrder: 4
    attribute: material._OverlayEmissive.b
    path: apolo_Ring/Spikes/spike (6)/apolo_spikinho
    classID: 212
    script: {fileID: 0}
  - curve:
      serializedVersion: 2
      m_Curve:
      - serializedVersion: 2
        time: 0
        value: 0
        inSlope: 0
        outSlope: 0
        tangentMode: 136
      m_PreInfinity: 2
      m_PostInfinity: 2
      m_RotationOrder: 4
    attribute: material._OverlayEmissive.a
    path: apolo_Ring/Spikes/spike (6)/apolo_spikinho
    classID: 212
    script: {fileID: 0}
  - curve:
      serializedVersion: 2
      m_Curve:
      - serializedVersion: 2
        time: 0
        value: 1
        inSlope: 0
        outSlope: 0
        tangentMode: 136
      m_PreInfinity: 2
      m_PostInfinity: 2
      m_RotationOrder: 4
    attribute: material._OverlayEmissive.r
    path: apolo_Ring/Spikes/spike (2)/apolo_spikinho
    classID: 212
    script: {fileID: 0}
  - curve:
      serializedVersion: 2
      m_Curve:
      - serializedVersion: 2
        time: 0
        value: 0
        inSlope: 0
        outSlope: 0
        tangentMode: 136
      m_PreInfinity: 2
      m_PostInfinity: 2
      m_RotationOrder: 4
    attribute: material._OverlayEmissive.g
    path: apolo_Ring/Spikes/spike (2)/apolo_spikinho
    classID: 212
    script: {fileID: 0}
  - curve:
      serializedVersion: 2
      m_Curve:
      - serializedVersion: 2
        time: 0
        value: 0
        inSlope: 0
        outSlope: 0
        tangentMode: 136
      m_PreInfinity: 2
      m_PostInfinity: 2
      m_RotationOrder: 4
    attribute: material._OverlayEmissive.b
    path: apolo_Ring/Spikes/spike (2)/apolo_spikinho
    classID: 212
    script: {fileID: 0}
  - curve:
      serializedVersion: 2
      m_Curve:
      - serializedVersion: 2
        time: 0
        value: 0
        inSlope: 0
        outSlope: 0
        tangentMode: 136
      m_PreInfinity: 2
      m_PostInfinity: 2
      m_RotationOrder: 4
    attribute: material._OverlayEmissive.a
    path: apolo_Ring/Spikes/spike (2)/apolo_spikinho
    classID: 212
    script: {fileID: 0}
  m_EulerEditorCurves: []
  m_HasGenericRootTransform: 0
  m_HasMotionFloatCurves: 0
  m_GenerateMotionCurves: 0
  m_Events: []
